<?xml version="1.0" encoding="UTF-8" standalone="no"?>
<!DOCTYPE svg PUBLIC "-//W3C//DTD SVG 1.1//EN" "http://www.w3.org/Graphics/SVG/1.1/DTD/svg11.dtd">
<!-- 由 Microsoft Visio, SVG Export 生成 freq_window_extend.svg 页-1 -->
<svg xmlns="http://www.w3.org/2000/svg" xmlns:xlink="http://www.w3.org/1999/xlink" xmlns:ev="http://www.w3.org/2001/xml-events"
		xmlns:v="http://schemas.microsoft.com/visio/2003/SVGExtensions/" width="8.99044in" height="1.21038in"
		viewBox="0 0 647.312 87.1475" xml:space="preserve" color-interpolation-filters="sRGB" class="st20">
	<v:documentProperties v:langID="2052" v:metric="true" v:viewMarkup="false"/>

	<style type="text/css">
	<![CDATA[
		.st1 {visibility:visible}
		.st2 {fill:none;filter:url(#filter_2);stroke:#5b9bd5;stroke-dasharray:3.5,2.5;stroke-opacity:0.22}
		.st3 {fill:none;stroke:#ff0000;stroke-dasharray:3.5,2.5;stroke-width:0.5}
		.st4 {fill:none;stroke:#000000;stroke-dasharray:3.5,2.5;stroke-width:0.5}
		.st5 {marker-end:url(#mrkr13-21);stroke:#000000;stroke-linecap:round;stroke-linejoin:round;stroke-width:1}
		.st6 {fill:#000000;fill-opacity:1;stroke:#000000;stroke-opacity:1;stroke-width:0.28409090909091}
		.st7 {fill:#5b9bd5;fill-opacity:0.22;filter:url(#filter_2);stroke:#5b9bd5;stroke-opacity:0.22}
		.st8 {fill:#000000;stroke:#000000;stroke-width:0.25}
		.st9 {fill:none;stroke:none;stroke-width:0.25}
		.st10 {fill:#000000;font-family:Times New Roman;font-size:1.16666em}
		.st11 {fill:#000000;font-family:Times New Roman;font-size:1.16666em;font-style:italic}
		.st12 {baseline-shift:-32.4943%;font-size:0.649886em}
		.st13 {fill:#000000;font-family:Times New Roman;font-size:0.833336em;font-style:italic}
		.st14 {baseline-shift:-32.4947%;font-size:0.649894em}
		.st15 {font-size:1em}
		.st16 {marker-end:url(#mrkr13-110);stroke:#ff0000;stroke-dasharray:3.5,2.5;stroke-linecap:round;stroke-linejoin:round;stroke-width:0.5}
		.st17 {fill:#ff0000;fill-opacity:1;stroke:#ff0000;stroke-opacity:1;stroke-width:0.16556291390728}
		.st18 {marker-start:url(#mrkr13-116);stroke:#ff0000;stroke-dasharray:3.5,2.5;stroke-linecap:round;stroke-linejoin:round;stroke-width:0.5}
		.st19 {fill:#000000;font-family:Times New Roman;font-size:0.833336em}
		.st20 {fill:none;fill-rule:evenodd;font-size:12px;overflow:visible;stroke-linecap:square;stroke-miterlimit:3}
	]]>
	</style>

	<defs id="Markers">
		<g id="lend13">
			<path d="M 3 1 L 0 0 L 3 -1 L 3 1 " style="stroke:none"/>
		</g>
		<marker id="mrkr13-21" class="st6" v:arrowType="13" v:arrowSize="2" v:setback="10.56" refX="-10.56" orient="auto"
				markerUnits="strokeWidth" overflow="visible">
			<use xlink:href="#lend13" transform="scale(-3.52,-3.52) "/>
		</marker>
		<marker id="mrkr13-110" class="st17" v:arrowType="13" v:arrowSize="2" v:setback="18.12" refX="-18.12" orient="auto"
				markerUnits="strokeWidth" overflow="visible">
			<use xlink:href="#lend13" transform="scale(-6.04,-6.04) "/>
		</marker>
		<marker id="mrkr13-116" class="st17" v:arrowType="13" v:arrowSize="2" v:setback="17.4" refX="17.4" orient="auto"
				markerUnits="strokeWidth" overflow="visible">
			<use xlink:href="#lend13" transform="scale(6.04) "/>
		</marker>
	</defs>
	<defs id="Filters">
		<filter id="filter_2">
			<feGaussianBlur stdDeviation="2"/>
		</filter>
	</defs>
	<g v:mID="0" v:index="1" v:groupContext="foregroundPage">
		<title>页-1</title>
		<v:pageProperties v:drawingScale="0.0393701" v:pageScale="0.0393701" v:drawingUnits="24" v:shadowOffsetX="8.50394"
				v:shadowOffsetY="-8.50394"/>
		<g id="shape638-1" v:mID="638" v:groupContext="shape" transform="translate(365.33,-34.9106)">
			<title>矩形.638</title>
			<v:userDefs>
				<v:ud v:nameU="visVersion" v:val="VT0(15):26"/>
			</v:userDefs>
			<g id="shadow638-2" v:groupContext="shadow" v:shadowOffsetX="0.345598" v:shadowOffsetY="-1.97279" v:shadowType="1"
					transform="matrix(1,0,0,1,0.345598,1.97279)" class="st1">
				<path d="M0 87.15 L211.75 87.15 L211.75 36.31 L0 36.31 L0 87.15 Z" class="st2"/>
			</g>
			<path d="M0 87.15 L211.75 87.15 L211.75 36.31 L0 36.31 L0 87.15 Z" class="st3"/>
		</g>
		<g id="shape642-6" v:mID="642" v:groupContext="shape" transform="translate(34.6689,-34.7216)">
			<title>矩形.642</title>
			<v:userDefs>
				<v:ud v:nameU="visVersion" v:val="VT0(15):26"/>
			</v:userDefs>
			<g id="shadow642-7" v:groupContext="shadow" v:shadowOffsetX="0.345598" v:shadowOffsetY="-1.97279" v:shadowType="1"
					transform="matrix(1,0,0,1,0.345598,1.97279)" class="st1">
				<path d="M0 87.15 L206.93 87.15 L206.93 36.31 L0 36.31 L0 87.15 Z" class="st2"/>
			</g>
			<path d="M0 87.15 L206.93 87.15 L206.93 36.31 L0 36.31 L0 87.15 Z" class="st3"/>
		</g>
		<g id="shape632-11" v:mID="632" v:groupContext="shape" transform="translate(414.511,-34.9106)">
			<title>矩形.632</title>
			<v:userDefs>
				<v:ud v:nameU="visVersion" v:val="VT0(15):26"/>
			</v:userDefs>
			<g id="shadow632-12" v:groupContext="shadow" v:shadowOffsetX="0.345598" v:shadowOffsetY="-1.97279" v:shadowType="1"
					transform="matrix(1,0,0,1,0.345598,1.97279)" class="st1">
				<path d="M0 87.15 L113.39 87.15 L113.39 51.9 L0 51.9 L0 87.15 Z" class="st2"/>
			</g>
			<path d="M0 87.15 L113.39 87.15 L113.39 51.9 L0 51.9 L0 87.15 Z" class="st4"/>
		</g>
		<g id="shape625-16" v:mID="625" v:groupContext="shape" transform="translate(11.1312,-34.7216)">
			<title>工作表.625</title>
			<path d="M0 87.15 L614.49 87.15" class="st5"/>
		</g>
		<g id="shape626-22" v:mID="626" v:groupContext="shape" transform="translate(305.094,-31.887)">
			<title>圆形.626</title>
			<v:userDefs>
				<v:ud v:nameU="visVersion" v:val="VT0(15):26"/>
			</v:userDefs>
			<g id="shadow626-23" v:groupContext="shadow" v:shadowOffsetX="0.345598" v:shadowOffsetY="-1.97279" v:shadowType="1"
					transform="matrix(1,0,0,1,0.345598,1.97279)" class="st1">
				<path d="M0 84.31 A2.83465 2.83465 0 0 1 5.67 84.31 A2.83465 2.83465 0 1 1 0 84.31 Z" class="st7"/>
			</g>
			<path d="M0 84.31 A2.83465 2.83465 0 0 1 5.67 84.31 A2.83465 2.83465 0 1 1 0 84.31 Z" class="st8"/>
		</g>
		<g id="shape627-27" v:mID="627" v:groupContext="shape" transform="translate(297.141,-13.3478)">
			<title>工作表.627</title>
			<desc>0</desc>
			<v:textBlock v:margins="rect(4,4,4,4)" v:tabSpace="42.5197"/>
			<v:textRect cx="10.7874" cy="79.9469" width="21.58" height="14.4012"/>
			<rect x="0" y="72.7463" width="21.5748" height="14.4012" class="st9"/>
			<text x="7.29" y="84.15" class="st10" v:langID="2052"><v:paragraph v:horizAlign="1"/><v:tabList/>0</text>		</g>
		<g id="shape628-30" v:mID="628" v:groupContext="shape" transform="translate(457.031,-31.887)">
			<title>圆形.628</title>
			<v:userDefs>
				<v:ud v:nameU="visVersion" v:val="VT0(15):26"/>
			</v:userDefs>
			<g id="shadow628-31" v:groupContext="shadow" v:shadowOffsetX="0.345598" v:shadowOffsetY="-1.97279" v:shadowType="1"
					transform="matrix(1,0,0,1,0.345598,1.97279)" class="st1">
				<path d="M0 84.31 A2.83465 2.83465 0 0 1 5.67 84.31 A2.83465 2.83465 0 1 1 0 84.31 Z" class="st7"/>
			</g>
			<path d="M0 84.31 A2.83465 2.83465 0 0 1 5.67 84.31 A2.83465 2.83465 0 1 1 0 84.31 Z" class="st8"/>
		</g>
		<g id="shape629-35" v:mID="629" v:groupContext="shape" transform="translate(449.078,-16.2964)">
			<title>工作表.629</title>
			<desc>f1</desc>
			<v:textBlock v:margins="rect(4,4,4,4)" v:tabSpace="42.5197"/>
			<v:textRect cx="10.7874" cy="79.9469" width="21.58" height="14.4012"/>
			<rect x="0" y="72.7463" width="21.5748" height="14.4012" class="st9"/>
			<text x="6.57" y="84.15" class="st11" v:langID="2052"><v:paragraph v:horizAlign="1"/><v:tabList/>f<tspan dy="-0.279em"
						class="st12" v:baseFontSize="14">1</tspan></text>		</g>
		<g id="shape630-39" v:mID="630" v:groupContext="shape" transform="translate(135.299,-31.887)">
			<title>圆形.630</title>
			<v:userDefs>
				<v:ud v:nameU="visVersion" v:val="VT0(15):26"/>
			</v:userDefs>
			<g id="shadow630-40" v:groupContext="shadow" v:shadowOffsetX="0.345598" v:shadowOffsetY="-1.97279" v:shadowType="1"
					transform="matrix(1,0,0,1,0.345598,1.97279)" class="st1">
				<path d="M0 84.31 A2.83465 2.83465 0 0 1 5.67 84.31 A2.83465 2.83465 0 1 1 0 84.31 Z" class="st7"/>
			</g>
			<path d="M0 84.31 A2.83465 2.83465 0 0 1 5.67 84.31 A2.83465 2.83465 0 1 1 0 84.31 Z" class="st8"/>
		</g>
		<g id="shape631-44" v:mID="631" v:groupContext="shape" transform="translate(127.346,-14.6512)">
			<title>工作表.631</title>
			<desc>f0</desc>
			<v:textBlock v:margins="rect(4,4,4,4)" v:tabSpace="42.5197"/>
			<v:textRect cx="10.7874" cy="79.9469" width="21.58" height="14.4012"/>
			<rect x="0" y="72.7463" width="21.5748" height="14.4012" class="st9"/>
			<text x="6.57" y="84.15" class="st11" v:langID="2052"><v:paragraph v:horizAlign="1"/><v:tabList/>f<tspan dy="-0.279em"
						class="st12" v:baseFontSize="14">0</tspan></text>		</g>
		<g id="shape633-48" v:mID="633" v:groupContext="shape" transform="translate(513.724,-19.0171)">
			<title>工作表.633</title>
			<desc>f1_H</desc>
			<v:textBlock v:margins="rect(4,4,4,4)" v:tabSpace="42.5197"/>
			<v:textRect cx="14.3307" cy="79.9469" width="28.67" height="14.4012"/>
			<rect x="0" y="72.7463" width="28.6614" height="14.4012" class="st9"/>
			<text x="7.35" y="82.95" class="st13" v:langID="2052"><v:paragraph v:horizAlign="1"/><v:tabList/>f<tspan dy="-0.279em"
						class="st14" v:baseFontSize="10">1</tspan><tspan class="st14" v:baseFontSize="10">_</tspan><tspan
						class="st14" v:baseFontSize="10">H</tspan></text>		</g>
		<g id="shape634-54" v:mID="634" v:groupContext="shape" transform="translate(401.472,-17.7137)">
			<title>工作表.634</title>
			<desc>f1_L</desc>
			<v:textBlock v:margins="rect(4,4,4,4)" v:tabSpace="42.5197"/>
			<v:textRect cx="14.3307" cy="79.9469" width="28.67" height="14.4012"/>
			<rect x="0" y="72.7463" width="28.6614" height="14.4012" class="st9"/>
			<text x="7.88" y="82.95" class="st13" v:langID="2052"><v:paragraph v:horizAlign="1"/><v:tabList/>f<tspan dy="-0.279em"
						class="st14" v:baseFontSize="10">1</tspan><tspan class="st14" v:baseFontSize="10">_</tspan><tspan
						class="st14" v:baseFontSize="10">L</tspan></text>		</g>
		<g id="shape635-60" v:mID="635" v:groupContext="shape" transform="translate(81.4406,-34.7216)">
			<title>矩形.635</title>
			<v:userDefs>
				<v:ud v:nameU="visVersion" v:val="VT0(15):26"/>
			</v:userDefs>
			<g id="shadow635-61" v:groupContext="shadow" v:shadowOffsetX="0.345598" v:shadowOffsetY="-1.97279" v:shadowType="1"
					transform="matrix(1,0,0,1,0.345598,1.97279)" class="st1">
				<path d="M0 87.15 L113.39 87.15 L113.39 51.9 L0 51.9 L0 87.15 Z" class="st2"/>
			</g>
			<path d="M0 87.15 L113.39 87.15 L113.39 51.9 L0 51.9 L0 87.15 Z" class="st4"/>
		</g>
		<g id="shape636-65" v:mID="636" v:groupContext="shape" transform="translate(180.653,-17.4858)">
			<title>工作表.636</title>
			<desc>f0_H</desc>
			<v:textBlock v:margins="rect(4,4,4,4)" v:tabSpace="42.5197"/>
			<v:textRect cx="15.0394" cy="79.9469" width="30.08" height="14.4012"/>
			<rect x="0" y="72.7463" width="30.0787" height="14.4012" class="st9"/>
			<text x="8.05" y="82.95" class="st13" v:langID="2052"><v:paragraph v:horizAlign="1"/><v:tabList/>f<tspan dy="-0.279em"
						class="st14" v:baseFontSize="10">0</tspan><tspan class="st14" v:baseFontSize="10">_</tspan><tspan
						class="st14" v:baseFontSize="10">H</tspan></text>		</g>
		<g id="shape637-71" v:mID="637" v:groupContext="shape" transform="translate(66.9524,-19.0171)">
			<title>工作表.637</title>
			<desc>f0_L</desc>
			<v:textBlock v:margins="rect(4,4,4,4)" v:tabSpace="42.5197"/>
			<v:textRect cx="15.0394" cy="79.9469" width="30.08" height="14.4012"/>
			<rect x="0" y="72.7463" width="30.0787" height="14.4012" class="st9"/>
			<text x="8.59" y="82.95" class="st13" v:langID="2052"><v:paragraph v:horizAlign="1"/><v:tabList/>f<tspan dy="-0.279em"
						class="st14" v:baseFontSize="10">0</tspan><tspan class="st14" v:baseFontSize="10">_</tspan><tspan
						class="st14" v:baseFontSize="10">L</tspan></text>		</g>
		<g id="shape639-77" v:mID="639" v:groupContext="shape" transform="translate(552.275,-17.7137)">
			<title>工作表.639</title>
			<desc>f1_H*1.5</desc>
			<v:textBlock v:margins="rect(4,4,4,4)" v:tabSpace="42.5197"/>
			<v:textRect cx="26.0787" cy="79.9469" width="52.16" height="14.4012"/>
			<rect x="0" y="72.7463" width="52.1575" height="14.4012" class="st9"/>
			<text x="10.34" y="82.95" class="st13" v:langID="2052"><v:paragraph v:horizAlign="1"/><v:tabList/>f<tspan dy="-0.279em"
						class="st14" v:baseFontSize="10">1</tspan><tspan class="st14" v:baseFontSize="10">_</tspan><tspan
						class="st14" v:baseFontSize="10">H</tspan><tspan dy="0.181em" class="st15">*</tspan>1.5</text>		</g>
		<g id="shape640-84" v:mID="640" v:groupContext="shape" transform="translate(337.976,-17.7137)">
			<title>工作表.640</title>
			<desc>f1_L/1.5</desc>
			<v:textBlock v:margins="rect(4,4,4,4)" v:tabSpace="42.5197"/>
			<v:textRect cx="26.0787" cy="79.9469" width="52.16" height="14.4012"/>
			<rect x="0" y="72.7463" width="52.1575" height="14.4012" class="st9"/>
			<text x="11.99" y="82.95" class="st13" v:langID="2052"><v:paragraph v:horizAlign="1"/><v:tabList/>f<tspan dy="-0.279em"
						class="st14" v:baseFontSize="10">1</tspan><tspan class="st14" v:baseFontSize="10">_</tspan><tspan
						class="st14" v:baseFontSize="10">L</tspan><tspan dy="0.181em" class="st15">/</tspan>1.5</text>		</g>
		<g id="shape643-91" v:mID="643" v:groupContext="shape" transform="translate(218.354,-17.4858)">
			<title>工作表.643</title>
			<desc>f0_H/1.5</desc>
			<v:textBlock v:margins="rect(4,4,4,4)" v:tabSpace="42.5197"/>
			<v:textRect cx="26.0787" cy="79.9469" width="52.16" height="14.4012"/>
			<rect x="0" y="72.7463" width="52.1575" height="14.4012" class="st9"/>
			<text x="11.45" y="82.95" class="st13" v:langID="2052"><v:paragraph v:horizAlign="1"/><v:tabList/>f<tspan dy="-0.279em"
						class="st14" v:baseFontSize="10">0</tspan><tspan class="st14" v:baseFontSize="10">_</tspan><tspan
						class="st14" v:baseFontSize="10">H</tspan><tspan dy="0.181em" class="st15">/</tspan>1.5</text>		</g>
		<g id="shape644-98" v:mID="644" v:groupContext="shape" transform="translate(17.661,-16.1824)">
			<title>工作表.644</title>
			<desc>f0_L*1.5</desc>
			<v:textBlock v:margins="rect(4,4,4,4)" v:tabSpace="42.5197"/>
			<v:textRect cx="19.5669" cy="79.9469" width="39.14" height="14.4012"/>
			<rect x="0" y="72.7463" width="39.1339" height="14.4012" class="st9"/>
			<text x="4.37" y="82.95" class="st13" v:langID="2052"><v:paragraph v:horizAlign="1"/><v:tabList/>f<tspan dy="-0.279em"
						class="st14" v:baseFontSize="10">0</tspan><tspan class="st14" v:baseFontSize="10">_</tspan><tspan
						class="st14" v:baseFontSize="10">L</tspan><tspan dy="0.181em" class="st15">*</tspan>1.5</text>		</g>
		<g id="shape646-105" v:mID="646" v:groupContext="shape" transform="translate(202.669,-52.3437)">
			<title>工作表.646</title>
			<path d="M0 87.15 L21.18 87.15" class="st16"/>
		</g>
		<g id="shape647-111" v:mID="647" v:groupContext="shape" transform="translate(43.9287,-52.3437)">
			<title>工作表.647</title>
			<path d="M8.7 87.15 L9.06 87.15 L28.16 87.15" class="st18"/>
		</g>
		<g id="shape648-117" v:mID="648" v:groupContext="shape" transform="translate(537.595,-52.5326)">
			<title>工作表.648</title>
			<path d="M0 87.15 L21.18 87.15" class="st16"/>
		</g>
		<g id="shape649-122" v:mID="649" v:groupContext="shape" transform="translate(376.527,-52.5326)">
			<title>工作表.649</title>
			<path d="M8.7 87.15 L9.06 87.15 L28.16 87.15" class="st18"/>
		</g>
		<g id="shape651-127" v:mID="651" v:groupContext="shape" transform="translate(394.669,-0.516888)">
			<title>工作表.651</title>
			<desc>53389</desc>
			<v:textBlock v:margins="rect(4,4,4,4)" v:tabSpace="42.5197"/>
			<v:textRect cx="19.8425" cy="79.9469" width="39.69" height="14.4012"/>
			<rect x="0" y="72.7463" width="39.685" height="14.4012" class="st9"/>
			<text x="7.34" y="82.95" class="st19" v:langID="2052"><v:paragraph v:horizAlign="1"/><v:tabList/>53389</text>		</g>
		<g id="shape652-130" v:mID="652" v:groupContext="shape" transform="translate(510.307,-0.705864)">
			<title>工作表.652</title>
			<desc>292726</desc>
			<v:textBlock v:margins="rect(4,4,4,4)" v:tabSpace="42.5197"/>
			<v:textRect cx="19.8425" cy="79.9469" width="39.69" height="14.4012"/>
			<rect x="0" y="72.7463" width="39.685" height="14.4012" class="st9"/>
			<text x="4.84" y="82.95" class="st19" v:langID="2052"><v:paragraph v:horizAlign="1"/><v:tabList/>292726</text>		</g>
		<g id="shape653-133" v:mID="653" v:groupContext="shape" transform="translate(561.913,-0.516888)">
			<title>工作表.653</title>
			<desc>439089</desc>
			<v:textBlock v:margins="rect(4,4,4,4)" v:tabSpace="42.5197"/>
			<v:textRect cx="19.8425" cy="79.9469" width="39.69" height="14.4012"/>
			<rect x="0" y="72.7463" width="39.685" height="14.4012" class="st9"/>
			<text x="4.84" y="82.95" class="st19" v:langID="2052"><v:paragraph v:horizAlign="1"/><v:tabList/>439089</text>		</g>
		<g id="shape654-136" v:mID="654" v:groupContext="shape" transform="translate(345.346,-0.516888)">
			<title>工作表.654</title>
			<desc>35593</desc>
			<v:textBlock v:margins="rect(4,4,4,4)" v:tabSpace="42.5197"/>
			<v:textRect cx="19.8425" cy="79.9469" width="39.69" height="14.4012"/>
			<rect x="0" y="72.7463" width="39.685" height="14.4012" class="st9"/>
			<text x="7.34" y="82.95" class="st19" v:langID="2052"><v:paragraph v:horizAlign="1"/><v:tabList/>35593</text>		</g>
		<g id="shape655-139" v:mID="655" v:groupContext="shape" transform="translate(173.567,-0.25)">
			<title>工作表.655</title>
			<desc>-77952</desc>
			<v:textBlock v:margins="rect(4,4,4,4)" v:tabSpace="42.5197"/>
			<v:textRect cx="19.8425" cy="79.9469" width="39.69" height="14.4012"/>
			<rect x="0" y="72.7463" width="39.685" height="14.4012" class="st9"/>
			<text x="5.68" y="82.95" class="st19" v:langID="2052"><v:paragraph v:horizAlign="1"/><v:tabList/>-77952</text>		</g>
		<g id="shape656-142" v:mID="656" v:groupContext="shape" transform="translate(220.622,-0.25)">
			<title>工作表.656</title>
			<desc>-51968</desc>
			<v:textBlock v:margins="rect(4,4,4,4)" v:tabSpace="42.5197"/>
			<v:textRect cx="19.8425" cy="79.9469" width="39.69" height="14.4012"/>
			<rect x="0" y="72.7463" width="39.685" height="14.4012" class="st9"/>
			<text x="5.68" y="82.95" class="st19" v:langID="2052"><v:paragraph v:horizAlign="1"/><v:tabList/>-51968</text>		</g>
		<g id="shape657-145" v:mID="657" v:groupContext="shape" transform="translate(56.2122,-0.477932)">
			<title>工作表.657</title>
			<desc>-268163</desc>
			<v:textBlock v:margins="rect(4,4,4,4)" v:tabSpace="42.5197"/>
			<v:textRect cx="26.0787" cy="79.9469" width="52.16" height="14.4012"/>
			<rect x="0" y="72.7463" width="52.1575" height="14.4012" class="st9"/>
			<text x="9.41" y="82.95" class="st19" v:langID="2052"><v:paragraph v:horizAlign="1"/><v:tabList/>-268163</text>		</g>
		<g id="shape658-148" v:mID="658" v:groupContext="shape" transform="translate(9.15709,-0.477932)">
			<title>工作表.658</title>
			<desc>-402244</desc>
			<v:textBlock v:margins="rect(4,4,4,4)" v:tabSpace="42.5197"/>
			<v:textRect cx="26.0787" cy="79.9469" width="52.16" height="14.4012"/>
			<rect x="0" y="72.7463" width="52.1575" height="14.4012" class="st9"/>
			<text x="9.41" y="82.95" class="st19" v:langID="2052"><v:paragraph v:horizAlign="1"/><v:tabList/>-402244</text>		</g>
	</g>
</svg>
