<?xml version="1.0" encoding="UTF-8" standalone="no"?>
<!DOCTYPE svg PUBLIC "-//W3C//DTD SVG 1.1//EN" "http://www.w3.org/Graphics/SVG/1.1/DTD/svg11.dtd">
<!-- 由 Microsoft Visio, SVG Export 生成 phase_no_makeup.svg 页-1 -->
<svg xmlns="http://www.w3.org/2000/svg" xmlns:xlink="http://www.w3.org/1999/xlink" xmlns:ev="http://www.w3.org/2001/xml-events"
		xmlns:v="http://schemas.microsoft.com/visio/2003/SVGExtensions/" width="6.94371in" height="4.44145in"
		viewBox="0 0 499.947 319.785" xml:space="preserve" color-interpolation-filters="sRGB" class="st16">
	<v:documentProperties v:langID="2052" v:metric="true" v:viewMarkup="false"/>

	<style type="text/css">
	<![CDATA[
		.st1 {stroke:#92d050;stroke-dasharray:1,2;stroke-linecap:round;stroke-linejoin:round;stroke-width:1}
		.st2 {marker-end:url(#mrkr13-9);stroke:#000000;stroke-linecap:round;stroke-linejoin:round;stroke-width:1}
		.st3 {fill:#000000;fill-opacity:1;stroke:#000000;stroke-opacity:1;stroke-width:0.28409090909091}
		.st4 {stroke:#000000;stroke-linecap:round;stroke-linejoin:round;stroke-width:1}
		.st5 {fill:none;stroke:none;stroke-width:0.25}
		.st6 {fill:#000000;font-family:Times New Roman;font-size:1.16666em;font-style:italic}
		.st7 {baseline-shift:-32.4943%;font-size:0.649886em}
		.st8 {fill:#000000;font-family:Times New Roman;font-size:1.16666em}
		.st9 {stroke:#4a80b0;stroke-linecap:butt;stroke-width:1.25}
		.st10 {marker-end:url(#mrkr13-9);marker-start:url(#mrkr13-55);stroke:#000000;stroke-linecap:round;stroke-linejoin:round;stroke-width:1}
		.st11 {fill:#ffffff;stroke:none;stroke-linecap:butt;stroke-width:7.2}
		.st12 {fill:#000000;font-family:黑体;font-size:1.00001em}
		.st13 {font-family:Times New Roman;font-size:1em}
		.st14 {stroke:#ff0000;stroke-dasharray:1,2;stroke-linecap:round;stroke-linejoin:round;stroke-width:1}
		.st15 {fill:#92d050;stroke:none;stroke-width:0.25}
		.st16 {fill:none;fill-rule:evenodd;font-size:12px;overflow:visible;stroke-linecap:square;stroke-miterlimit:3}
	]]>
	</style>

	<defs id="Markers">
		<g id="lend13">
			<path d="M 3 1 L 0 0 L 3 -1 L 3 1 " style="stroke:none"/>
		</g>
		<marker id="mrkr13-9" class="st3" v:arrowType="13" v:arrowSize="2" v:setback="10.56" refX="-10.56" orient="auto"
				markerUnits="strokeWidth" overflow="visible">
			<use xlink:href="#lend13" transform="scale(-3.52,-3.52) "/>
		</marker>
		<marker id="mrkr13-55" class="st3" v:arrowType="13" v:arrowSize="2" v:setback="10.2" refX="10.2" orient="auto"
				markerUnits="strokeWidth" overflow="visible">
			<use xlink:href="#lend13" transform="scale(3.52) "/>
		</marker>
	</defs>
	<g v:mID="0" v:index="1" v:groupContext="foregroundPage">
		<title>页-1</title>
		<v:pageProperties v:drawingScale="0.0393701" v:pageScale="0.0393701" v:drawingUnits="24" v:shadowOffsetX="8.50394"
				v:shadowOffsetY="-8.50394"/>
		<v:layer v:name="电气" v:index="0"/>
		<g id="shape8-1" v:mID="8" v:groupContext="shape" transform="translate(-277.899,311.604) rotate(-90)">
			<title>工作表.8</title>
			<path d="M0 319.78 L170.08 319.78" class="st1"/>
		</g>
		<g id="shape1-4" v:mID="1" v:groupContext="shape" transform="translate(41.8858,-138.575)">
			<title>工作表.1</title>
			<path d="M0 319.78 L435.9 319.78" class="st2"/>
		</g>
		<g id="shape2-10" v:mID="2" v:groupContext="shape" transform="translate(-277.899,181.21) rotate(-90)">
			<title>工作表.2</title>
			<path d="M0 319.78 L159.52 319.78" class="st2"/>
		</g>
		<g id="shape3-15" v:mID="3" v:groupContext="shape" transform="translate(0.5,-59.2046)">
			<title>工作表.3</title>
			<path d="M0 319.78 L495.5 319.78" class="st4"/>
		</g>
		<g id="shape4-18" v:mID="4" v:groupContext="shape" transform="translate(476.988,-118.575)">
			<title>工作表.4</title>
			<desc>i</desc>
			<v:textBlock v:margins="rect(4,4,4,4)" v:tabSpace="42.5197"/>
			<v:textRect cx="11.3543" cy="309.785" width="22.71" height="20"/>
			<rect x="0" y="299.785" width="22.7087" height="20" class="st5"/>
			<text x="9.41" y="313.98" class="st6" v:langID="2052"><v:paragraph v:horizAlign="1"/><v:tabList/>i</text>		</g>
		<g id="shape5-21" v:mID="5" v:groupContext="shape" transform="translate(17.7598,-297.315)">
			<title>工作表.5</title>
			<desc>yi</desc>
			<v:textBlock v:margins="rect(4,4,4,4)" v:tabSpace="42.5197"/>
			<v:textRect cx="11.3543" cy="309.785" width="22.71" height="20"/>
			<rect x="0" y="299.785" width="22.7087" height="20" class="st5"/>
			<text x="6.98" y="313.98" class="st6" v:langID="2052"><v:paragraph v:horizAlign="1"/><v:tabList/>y<tspan dy="-0.279em"
						class="st7" v:baseFontSize="14">i</tspan></text>		</g>
		<g id="shape6-25" v:mID="6" v:groupContext="shape" transform="translate(22.0118,-125.74)">
			<title>工作表.6</title>
			<desc>0</desc>
			<v:textBlock v:margins="rect(4,4,4,4)" v:tabSpace="42.5197"/>
			<v:textRect cx="11.3543" cy="309.785" width="22.71" height="20"/>
			<rect x="0" y="299.785" width="22.7087" height="20" class="st5"/>
			<text x="7.85" y="313.98" class="st8" v:langID="2052"><v:paragraph v:horizAlign="1"/><v:tabList/>0</text>		</g>
		<g id="shape7-28" v:mID="7" v:groupContext="shape" v:layerMember="0" transform="translate(41.8858,-33.6928)">
			<title>信号波形</title>
			<v:custProps>
				<v:cp v:nameU="SubType" v:lbl="类型" v:type="1" v:format="方波;正弦波;锯齿波;斜波;3 状态数据" v:langID="2052" v:val="VT4(方波)"/>
				<v:cp v:nameU="SubType" v:lbl="" v:prompt="" v:type="0" v:format="" v:sortKey="" v:invis="false" v:ask="false"
						v:langID="0" v:cal="0" v:val="VT4(正弦波)"/>
			</v:custProps>
			<v:userDefs>
				<v:ud v:nameU="SubType" v:val="VT0(0):26"/>
				<v:ud v:nameU="visVersion" v:val="VT0(15):26"/>
				<v:ud v:nameU="visDescription" v:val="VT4(表示各种信号波形。)"/>
				<v:ud v:nameU="SubType" v:prompt="" v:val="VT0(1):26"/>
			</v:userDefs>
			<path d="M0 294.27 A18.6024 63.7795 0 0 1 29.76 294.27 A18.6024 63.7795 -180 0 0 59.53 294.27" class="st9"/>
		</g>
		<g id="shape9-31" v:mID="9" v:groupContext="shape" v:layerMember="0" transform="translate(101.413,-33.6928)">
			<title>信号波形.9</title>
			<v:custProps>
				<v:cp v:nameU="SubType" v:lbl="类型" v:type="1" v:format="方波;正弦波;锯齿波;斜波;3 状态数据" v:langID="2052" v:val="VT4(方波)"/>
				<v:cp v:nameU="SubType" v:lbl="" v:prompt="" v:type="0" v:format="" v:sortKey="" v:invis="false" v:ask="false"
						v:langID="0" v:cal="0" v:val="VT4(正弦波)"/>
			</v:custProps>
			<v:userDefs>
				<v:ud v:nameU="SubType" v:val="VT0(0):26"/>
				<v:ud v:nameU="visVersion" v:val="VT0(15):26"/>
				<v:ud v:nameU="visDescription" v:val="VT4(表示各种信号波形。)"/>
				<v:ud v:nameU="SubType" v:prompt="" v:val="VT0(1):26"/>
			</v:userDefs>
			<path d="M0 294.27 A18.6024 63.7795 0 0 1 29.76 294.27 A18.6024 63.7795 -180 0 0 59.53 294.27" class="st9"/>
		</g>
		<g id="shape10-34" v:mID="10" v:groupContext="shape" v:layerMember="0" transform="translate(160.941,-33.6928)">
			<title>信号波形.10</title>
			<v:custProps>
				<v:cp v:nameU="SubType" v:lbl="类型" v:type="1" v:format="方波;正弦波;锯齿波;斜波;3 状态数据" v:langID="2052" v:val="VT4(方波)"/>
				<v:cp v:nameU="SubType" v:lbl="" v:prompt="" v:type="0" v:format="" v:sortKey="" v:invis="false" v:ask="false"
						v:langID="0" v:cal="0" v:val="VT4(正弦波)"/>
			</v:custProps>
			<v:userDefs>
				<v:ud v:nameU="SubType" v:val="VT0(0):26"/>
				<v:ud v:nameU="visVersion" v:val="VT0(15):26"/>
				<v:ud v:nameU="visDescription" v:val="VT4(表示各种信号波形。)"/>
				<v:ud v:nameU="SubType" v:prompt="" v:val="VT0(1):26"/>
			</v:userDefs>
			<path d="M0 294.27 A18.6024 63.7795 0 0 1 29.76 294.27 A18.6024 63.7795 -180 0 0 59.53 294.27" class="st9"/>
		</g>
		<g id="shape11-37" v:mID="11" v:groupContext="shape" v:layerMember="0" transform="translate(220.469,-33.6928)">
			<title>信号波形.11</title>
			<v:custProps>
				<v:cp v:nameU="SubType" v:lbl="类型" v:type="1" v:format="方波;正弦波;锯齿波;斜波;3 状态数据" v:langID="2052" v:val="VT4(方波)"/>
				<v:cp v:nameU="SubType" v:lbl="" v:prompt="" v:type="0" v:format="" v:sortKey="" v:invis="false" v:ask="false"
						v:langID="0" v:cal="0" v:val="VT4(正弦波)"/>
			</v:custProps>
			<v:userDefs>
				<v:ud v:nameU="SubType" v:val="VT0(0):26"/>
				<v:ud v:nameU="visVersion" v:val="VT0(15):26"/>
				<v:ud v:nameU="visDescription" v:val="VT4(表示各种信号波形。)"/>
				<v:ud v:nameU="SubType" v:prompt="" v:val="VT0(1):26"/>
			</v:userDefs>
			<path d="M0 294.27 A18.6024 63.7795 0 0 1 29.76 294.27 A18.6024 63.7795 -180 0 0 59.53 294.27" class="st9"/>
		</g>
		<g id="shape12-40" v:mID="12" v:groupContext="shape" v:layerMember="0" transform="translate(279.996,-33.6928)">
			<title>信号波形.12</title>
			<v:custProps>
				<v:cp v:nameU="SubType" v:lbl="类型" v:type="1" v:format="方波;正弦波;锯齿波;斜波;3 状态数据" v:langID="2052" v:val="VT4(方波)"/>
				<v:cp v:nameU="SubType" v:lbl="" v:prompt="" v:type="0" v:format="" v:sortKey="" v:invis="false" v:ask="false"
						v:langID="0" v:cal="0" v:val="VT4(正弦波)"/>
			</v:custProps>
			<v:userDefs>
				<v:ud v:nameU="SubType" v:val="VT0(0):26"/>
				<v:ud v:nameU="visVersion" v:val="VT0(15):26"/>
				<v:ud v:nameU="visDescription" v:val="VT4(表示各种信号波形。)"/>
				<v:ud v:nameU="SubType" v:prompt="" v:val="VT0(1):26"/>
			</v:userDefs>
			<path d="M0 294.27 A18.6024 63.7795 0 0 1 29.76 294.27 A18.6024 63.7795 -180 0 0 59.53 294.27" class="st9"/>
		</g>
		<g id="shape13-43" v:mID="13" v:groupContext="shape" v:layerMember="0" transform="translate(339.524,-33.6928)">
			<title>信号波形.13</title>
			<v:custProps>
				<v:cp v:nameU="SubType" v:lbl="类型" v:type="1" v:format="方波;正弦波;锯齿波;斜波;3 状态数据" v:langID="2052" v:val="VT4(方波)"/>
				<v:cp v:nameU="SubType" v:lbl="" v:prompt="" v:type="0" v:format="" v:sortKey="" v:invis="false" v:ask="false"
						v:langID="0" v:cal="0" v:val="VT4(正弦波)"/>
			</v:custProps>
			<v:userDefs>
				<v:ud v:nameU="SubType" v:val="VT0(0):26"/>
				<v:ud v:nameU="visVersion" v:val="VT0(15):26"/>
				<v:ud v:nameU="visDescription" v:val="VT4(表示各种信号波形。)"/>
				<v:ud v:nameU="SubType" v:prompt="" v:val="VT0(1):26"/>
			</v:userDefs>
			<path d="M0 294.27 A18.6024 63.7795 0 0 1 29.76 294.27 A18.6024 63.7795 -180 0 0 59.53 294.27" class="st9"/>
		</g>
		<g id="shape17-46" v:mID="17" v:groupContext="shape" transform="translate(138.794,319.285) rotate(-90)">
			<title>工作表.17</title>
			<path d="M0 319.78 L58.98 319.78" class="st1"/>
		</g>
		<g id="shape18-49" v:mID="18" v:groupContext="shape" transform="translate(41.8858,-21.9884)">
			<title>工作表.18</title>
			<desc>比特07个3.951MHz</desc>
			<v:textBlock v:margins="rect(4,4,4,4)" v:tabSpace="42.5197"/>
			<v:textRect cx="207.685" cy="319.785" width="415.38" height="0"/>
			<path d="M10.2 319.78 L10.56 319.78 L404.81 319.78" class="st10"/>
			<rect v:rectContext="textBkgnd" x="151.853" y="311.888" width="111.664" height="15.7931" class="st11"/>
			<text x="151.85" y="323.73" class="st12" v:langID="2052"><v:paragraph v:horizAlign="1"/><v:tabList/>比特<tspan
						class="st13">0</tspan>：<tspan class="st13">7</tspan>个<tspan class="st13">3</tspan><tspan class="st13">.</tspan><tspan
						class="st13">951</tspan><tspan class="st13">MHz</tspan></text>		</g>
		<g id="shape19-65" v:mID="19" v:groupContext="shape" transform="translate(-218.371,260.58) rotate(-90)">
			<title>工作表.19</title>
			<path d="M0 319.78 L132.85 319.78" class="st14"/>
		</g>
		<g id="shape20-68" v:mID="20" v:groupContext="shape" transform="translate(-171.83,-56.6717) rotate(-41.9369)">
			<title>工作表.20</title>
			<path d="M0 319.78 L80.02 319.78" class="st4"/>
		</g>
		<g id="shape31-71" v:mID="31" v:groupContext="shape" transform="translate(-158.844,260.58) rotate(-90)">
			<title>工作表.31</title>
			<path d="M0 319.78 L132.85 319.78" class="st14"/>
		</g>
		<g id="shape32-74" v:mID="32" v:groupContext="shape" transform="translate(-99.3161,260.58) rotate(-90)">
			<title>工作表.32</title>
			<path d="M0 319.78 L132.85 319.78" class="st14"/>
		</g>
		<g id="shape33-77" v:mID="33" v:groupContext="shape" transform="translate(-39.7886,260.58) rotate(-90)">
			<title>工作表.33</title>
			<path d="M0 319.78 L132.85 319.78" class="st14"/>
		</g>
		<g id="shape34-80" v:mID="34" v:groupContext="shape" transform="translate(19.739,260.58) rotate(-90)">
			<title>工作表.34</title>
			<path d="M0 319.78 L132.85 319.78" class="st14"/>
		</g>
		<g id="shape35-83" v:mID="35" v:groupContext="shape" transform="translate(79.2665,260.58) rotate(-90)">
			<title>工作表.35</title>
			<path d="M0 319.78 L132.85 319.78" class="st14"/>
		</g>
		<g id="shape36-86" v:mID="36" v:groupContext="shape" transform="translate(-112.303,-56.9248) rotate(-41.9369)">
			<title>工作表.36</title>
			<path d="M0 319.78 L80.02 319.78" class="st4"/>
		</g>
		<g id="shape37-89" v:mID="37" v:groupContext="shape" transform="translate(-52.775,-56.9248) rotate(-41.9369)">
			<title>工作表.37</title>
			<path d="M0 319.78 L80.02 319.78" class="st4"/>
		</g>
		<g id="shape38-92" v:mID="38" v:groupContext="shape" transform="translate(7.10688,-56.6717) rotate(-41.9369)">
			<title>工作表.38</title>
			<path d="M0 319.78 L80.02 319.78" class="st4"/>
		</g>
		<g id="shape39-95" v:mID="39" v:groupContext="shape" transform="translate(66.847,-56.6717) rotate(-41.9369)">
			<title>工作表.39</title>
			<path d="M0 319.78 L80.02 319.78" class="st4"/>
		</g>
		<g id="shape40-98" v:mID="40" v:groupContext="shape" transform="translate(125.808,-56.6717) rotate(-41.9369)">
			<title>工作表.40</title>
			<path d="M0 319.78 L80.02 319.78" class="st4"/>
		</g>
		<g id="shape41-101" v:mID="41" v:groupContext="shape" v:layerMember="0" transform="translate(399.051,-33.9671)">
			<title>信号波形.41</title>
			<v:custProps>
				<v:cp v:nameU="SubType" v:lbl="类型" v:type="1" v:format="方波;正弦波;锯齿波;斜波;3 状态数据" v:langID="2052" v:val="VT4(方波)"/>
				<v:cp v:nameU="SubType" v:lbl="" v:prompt="" v:type="0" v:format="" v:sortKey="" v:invis="false" v:ask="false"
						v:langID="0" v:cal="0" v:val="VT4(正弦波)"/>
			</v:custProps>
			<v:userDefs>
				<v:ud v:nameU="SubType" v:val="VT0(0):26"/>
				<v:ud v:nameU="visVersion" v:val="VT0(15):26"/>
				<v:ud v:nameU="visDescription" v:val="VT4(表示各种信号波形。)"/>
				<v:ud v:nameU="SubType" v:prompt="" v:val="VT0(1):26"/>
			</v:userDefs>
			<path d="M0 294.27 A18.6024 63.7795 0 0 1 29.76 294.27 A18.6024 63.7795 -180 0 0 59.53 294.27" class="st9"/>
		</g>
		<g id="shape44-104" v:mID="44" v:groupContext="shape" transform="translate(138.794,260.306) rotate(-90)">
			<title>工作表.44</title>
			<path d="M0 319.78 L132.85 319.78" class="st14"/>
		</g>
		<g id="shape45-107" v:mID="45" v:groupContext="shape" transform="translate(185.335,-56.6717) rotate(-41.9369)">
			<title>工作表.45</title>
			<path d="M0 319.78 L80.02 319.78" class="st4"/>
		</g>
		<g id="shape106-110" v:mID="106" v:groupContext="shape" transform="translate(152.988,-266.134)">
			<title>工作表.106</title>
			<desc>不考虑2pi模糊度时的相位直线</desc>
			<v:textBlock v:margins="rect(4,4,4,4)" v:tabSpace="42.5197"/>
			<v:textRect cx="97.2441" cy="309.785" width="194.49" height="20"/>
			<rect x="0" y="299.785" width="194.488" height="20" class="st15"/>
			<text x="17.58" y="313.73" class="st12" v:langID="2052"><v:paragraph v:horizAlign="1"/><v:tabList/>不考虑<tspan
						class="st13">2</tspan><tspan class="st13">pi</tspan>模糊度时的相位直线</text>		</g>
	</g>
</svg>
