<?xml version="1.0" encoding="UTF-8" standalone="no"?>
<!DOCTYPE svg PUBLIC "-//W3C//DTD SVG 1.1//EN" "http://www.w3.org/Graphics/SVG/1.1/DTD/svg11.dtd">
<!-- 由 Microsoft Visio, SVG Export 生成 slope_distribution.svg 页-1 -->
<svg xmlns="http://www.w3.org/2000/svg" xmlns:xlink="http://www.w3.org/1999/xlink" xmlns:ev="http://www.w3.org/2001/xml-events"
		xmlns:v="http://schemas.microsoft.com/visio/2003/SVGExtensions/" width="5.386in" height="2.85298in"
		viewBox="0 0 387.792 205.414" xml:space="preserve" color-interpolation-filters="sRGB" class="st17">
	<v:documentProperties v:langID="2052" v:metric="true" v:viewMarkup="false"/>

	<style type="text/css">
	<![CDATA[
		.st1 {marker-end:url(#mrkr13-6);stroke:#000000;stroke-linecap:round;stroke-linejoin:round;stroke-width:1}
		.st2 {fill:#000000;fill-opacity:1;stroke:#000000;stroke-opacity:1;stroke-width:0.28409090909091}
		.st3 {fill:none;stroke:none;stroke-width:0.25}
		.st4 {fill:#000000;font-family:Times New Roman;font-size:1.16666em;font-style:italic}
		.st5 {fill:#000000;font-family:Times New Roman;font-size:1.5em;font-style:italic}
		.st6 {baseline-shift:-32.4951%;font-size:0.649902em}
		.st7 {fill:#000000;font-family:Times New Roman;font-size:1.16666em}
		.st8 {stroke:#000000;stroke-linecap:round;stroke-linejoin:round;stroke-width:1}
		.st9 {fill:#92d050;stroke:none;stroke-width:0.25}
		.st10 {fill:#000000;font-family:黑体;font-size:1.00001em}
		.st11 {fill:#000000;font-family:黑体;font-size:0.75em}
		.st12 {font-family:Times New Roman;font-size:1em}
		.st13 {font-size:1em}
		.st14 {visibility:visible}
		.st15 {fill:#5b9bd5;fill-opacity:0.22;filter:url(#filter_2);stroke:none}
		.st16 {fill:#ff0000;stroke:none;stroke-width:0.25}
		.st17 {fill:none;fill-rule:evenodd;font-size:12px;overflow:visible;stroke-linecap:square;stroke-miterlimit:3}
	]]>
	</style>

	<defs id="Markers">
		<g id="lend13">
			<path d="M 3 1 L 0 0 L 3 -1 L 3 1 " style="stroke:none"/>
		</g>
		<marker id="mrkr13-6" class="st2" v:arrowType="13" v:arrowSize="2" v:setback="10.56" refX="-10.56" orient="auto"
				markerUnits="strokeWidth" overflow="visible">
			<use xlink:href="#lend13" transform="scale(-3.52,-3.52) "/>
		</marker>
	</defs>
	<defs id="Filters">
		<filter id="filter_2">
			<feGaussianBlur stdDeviation="2"/>
		</filter>
	</defs>
	<g v:mID="0" v:index="1" v:groupContext="foregroundPage">
		<title>页-1</title>
		<v:pageProperties v:drawingScale="0.0393701" v:pageScale="0.0393701" v:drawingUnits="24" v:shadowOffsetX="8.50394"
				v:shadowOffsetY="-8.50394"/>
		<g id="shape59-1" v:mID="59" v:groupContext="shape" transform="translate(58.3917,-20.25)">
			<title>工作表.59</title>
			<path d="M0 205.41 L307.71 205.41" class="st1"/>
		</g>
		<g id="shape60-7" v:mID="60" v:groupContext="shape" transform="translate(-147.023,185.164) rotate(-90)">
			<title>工作表.60</title>
			<path d="M0 205.41 L159.52 205.41" class="st1"/>
		</g>
		<g id="shape62-12" v:mID="62" v:groupContext="shape" transform="translate(362.345,-0.25)">
			<title>工作表.62</title>
			<desc>i</desc>
			<v:textBlock v:margins="rect(4,4,4,4)" v:tabSpace="42.5197"/>
			<v:textRect cx="11.3543" cy="195.414" width="22.71" height="20"/>
			<rect x="0" y="185.414" width="22.7087" height="20" class="st3"/>
			<text x="9.41" y="199.61" class="st4" v:langID="2052"><v:paragraph v:horizAlign="1"/><v:tabList/>i</text>		</g>
		<g id="shape63-15" v:mID="63" v:groupContext="shape" transform="translate(28.565,-175.178)">
			<title>工作表.63</title>
			<desc>an</desc>
			<v:textBlock v:margins="rect(4,4,4,4)" v:tabSpace="42.5197"/>
			<v:textRect cx="17.0236" cy="190.421" width="34.05" height="29.9861"/>
			<rect x="0" y="175.428" width="34.0472" height="29.9861" class="st3"/>
			<text x="9.6" y="195.82" class="st5" v:langID="2052"><v:paragraph v:horizAlign="1"/><v:tabList/>a<tspan dy="-0.279em"
						class="st6" v:baseFontSize="18">n</tspan></text>		</g>
		<g id="shape64-19" v:mID="64" v:groupContext="shape" transform="translate(38.5177,-7.41535)">
			<title>工作表.64</title>
			<desc>0</desc>
			<v:textBlock v:margins="rect(4,4,4,4)" v:tabSpace="42.5197"/>
			<v:textRect cx="11.3543" cy="195.414" width="22.71" height="20"/>
			<rect x="0" y="185.414" width="22.7087" height="20" class="st3"/>
			<text x="7.85" y="199.61" class="st7" v:langID="2052"><v:paragraph v:horizAlign="1"/><v:tabList/>0</text>		</g>
		<g id="shape74-22" v:mID="74" v:groupContext="shape" transform="translate(58.3917,-99.4626)">
			<title>工作表.74</title>
			<path d="M0 205.41 L294.54 205.41" class="st8"/>
		</g>
		<g id="shape88-25" v:mID="88" v:groupContext="shape" transform="translate(130.644,-143.242)">
			<title>工作表.88</title>
			<desc>斜率点的大致分布</desc>
			<v:textBlock v:margins="rect(4,4,4,4)" v:tabSpace="42.5197"/>
			<v:textRect cx="69.8819" cy="195.414" width="139.77" height="20"/>
			<rect x="0" y="185.414" width="139.764" height="20" class="st9"/>
			<text x="21.88" y="199.36" class="st10" v:langID="2052"><v:paragraph v:horizAlign="1"/><v:tabList/>斜率点的大致分布</text>		</g>
		<g id="shape118-28" v:mID="118" v:groupContext="shape" transform="translate(0.25,-73.9508)">
			<title>工作表.118</title>
			<desc>单个bit的理想斜率值</desc>
			<v:textBlock v:margins="rect(4,4,4,4)" v:tabSpace="42.5197"/>
			<v:textRect cx="28.3465" cy="179.903" width="56.7" height="51.0236"/>
			<rect x="0" y="154.391" width="56.6929" height="51.0236" class="st3"/>
			<text x="5.6" y="176.94" class="st11" v:langID="2052"><v:paragraph v:horizAlign="1"/><v:tabList/>单个<tspan class="st12">bit</tspan>的理<tspan
						x="10.35" dy="1.316em" class="st13">想斜率值</tspan></text>		</g>
		<g id="shape119-33" v:mID="119" v:groupContext="shape" transform="translate(62.3642,-96.3799)">
			<title>圆形.119</title>
			<v:userDefs>
				<v:ud v:nameU="visVersion" v:val="VT0(15):26"/>
			</v:userDefs>
			<g id="shadow119-34" v:groupContext="shadow" v:shadowOffsetX="0.345598" v:shadowOffsetY="-1.97279" v:shadowType="1"
					transform="matrix(1,0,0,1,0.345598,1.97279)" class="st14">
				<path d="M0 202.33 A3.08268 3.08268 0 0 1 6.17 202.33 A3.08268 3.08268 0 1 1 0 202.33 Z" class="st15"/>
			</g>
			<path d="M0 202.33 A3.08268 3.08268 0 0 1 6.17 202.33 A3.08268 3.08268 0 1 1 0 202.33 Z" class="st16"/>
		</g>
		<g id="shape120-38" v:mID="120" v:groupContext="shape" transform="translate(76.2894,-103.715)">
			<title>圆形.120</title>
			<v:userDefs>
				<v:ud v:nameU="visVersion" v:val="VT0(15):26"/>
			</v:userDefs>
			<g id="shadow120-39" v:groupContext="shadow" v:shadowOffsetX="0.345598" v:shadowOffsetY="-1.97279" v:shadowType="1"
					transform="matrix(1,0,0,1,0.345598,1.97279)" class="st14">
				<path d="M0 202.33 A3.08268 3.08268 0 0 1 6.17 202.33 A3.08268 3.08268 0 1 1 0 202.33 Z" class="st15"/>
			</g>
			<path d="M0 202.33 A3.08268 3.08268 0 0 1 6.17 202.33 A3.08268 3.08268 0 1 1 0 202.33 Z" class="st16"/>
		</g>
		<g id="shape121-43" v:mID="121" v:groupContext="shape" transform="translate(88.124,-88.124)">
			<title>圆形.121</title>
			<v:userDefs>
				<v:ud v:nameU="visVersion" v:val="VT0(15):26"/>
			</v:userDefs>
			<g id="shadow121-44" v:groupContext="shadow" v:shadowOffsetX="0.345598" v:shadowOffsetY="-1.97279" v:shadowType="1"
					transform="matrix(1,0,0,1,0.345598,1.97279)" class="st14">
				<path d="M0 202.33 A3.08268 3.08268 0 0 1 6.17 202.33 A3.08268 3.08268 0 1 1 0 202.33 Z" class="st15"/>
			</g>
			<path d="M0 202.33 A3.08268 3.08268 0 0 1 6.17 202.33 A3.08268 3.08268 0 1 1 0 202.33 Z" class="st16"/>
		</g>
		<g id="shape122-48" v:mID="122" v:groupContext="shape" transform="translate(101.801,-100.384)">
			<title>圆形.122</title>
			<v:userDefs>
				<v:ud v:nameU="visVersion" v:val="VT0(15):26"/>
			</v:userDefs>
			<g id="shadow122-49" v:groupContext="shadow" v:shadowOffsetX="0.345598" v:shadowOffsetY="-1.97279" v:shadowType="1"
					transform="matrix(1,0,0,1,0.345598,1.97279)" class="st14">
				<path d="M0 202.33 A3.08268 3.08268 0 0 1 6.17 202.33 A3.08268 3.08268 0 1 1 0 202.33 Z" class="st15"/>
			</g>
			<path d="M0 202.33 A3.08268 3.08268 0 0 1 6.17 202.33 A3.08268 3.08268 0 1 1 0 202.33 Z" class="st16"/>
		</g>
		<g id="shape123-53" v:mID="123" v:groupContext="shape" transform="translate(115.478,-91.8799)">
			<title>圆形.123</title>
			<v:userDefs>
				<v:ud v:nameU="visVersion" v:val="VT0(15):26"/>
			</v:userDefs>
			<g id="shadow123-54" v:groupContext="shadow" v:shadowOffsetX="0.345598" v:shadowOffsetY="-1.97279" v:shadowType="1"
					transform="matrix(1,0,0,1,0.345598,1.97279)" class="st14">
				<path d="M0 202.33 A3.08268 3.08268 0 0 1 6.17 202.33 A3.08268 3.08268 0 1 1 0 202.33 Z" class="st15"/>
			</g>
			<path d="M0 202.33 A3.08268 3.08268 0 0 1 6.17 202.33 A3.08268 3.08268 0 1 1 0 202.33 Z" class="st16"/>
		</g>
		<g id="shape124-58" v:mID="124" v:groupContext="shape" transform="translate(130.644,-103.219)">
			<title>圆形.124</title>
			<v:userDefs>
				<v:ud v:nameU="visVersion" v:val="VT0(15):26"/>
			</v:userDefs>
			<g id="shadow124-59" v:groupContext="shadow" v:shadowOffsetX="0.345598" v:shadowOffsetY="-1.97279" v:shadowType="1"
					transform="matrix(1,0,0,1,0.345598,1.97279)" class="st14">
				<path d="M0 202.33 A3.08268 3.08268 0 0 1 6.17 202.33 A3.08268 3.08268 0 1 1 0 202.33 Z" class="st15"/>
			</g>
			<path d="M0 202.33 A3.08268 3.08268 0 0 1 6.17 202.33 A3.08268 3.08268 0 1 1 0 202.33 Z" class="st16"/>
		</g>
		<g id="shape125-63" v:mID="125" v:groupContext="shape" transform="translate(148.573,-90.4626)">
			<title>圆形.125</title>
			<v:userDefs>
				<v:ud v:nameU="visVersion" v:val="VT0(15):26"/>
			</v:userDefs>
			<g id="shadow125-64" v:groupContext="shadow" v:shadowOffsetX="0.345598" v:shadowOffsetY="-1.97279" v:shadowType="1"
					transform="matrix(1,0,0,1,0.345598,1.97279)" class="st14">
				<path d="M0 202.33 A3.08268 3.08268 0 0 1 6.17 202.33 A3.08268 3.08268 0 1 1 0 202.33 Z" class="st15"/>
			</g>
			<path d="M0 202.33 A3.08268 3.08268 0 0 1 6.17 202.33 A3.08268 3.08268 0 1 1 0 202.33 Z" class="st16"/>
		</g>
		<g id="shape126-68" v:mID="126" v:groupContext="shape" transform="translate(175.998,-90.4626)">
			<title>圆形.126</title>
			<v:userDefs>
				<v:ud v:nameU="visVersion" v:val="VT0(15):26"/>
			</v:userDefs>
			<g id="shadow126-69" v:groupContext="shadow" v:shadowOffsetX="0.345598" v:shadowOffsetY="-1.97279" v:shadowType="1"
					transform="matrix(1,0,0,1,0.345598,1.97279)" class="st14">
				<path d="M0 202.33 A3.08268 3.08268 0 0 1 6.17 202.33 A3.08268 3.08268 0 1 1 0 202.33 Z" class="st15"/>
			</g>
			<path d="M0 202.33 A3.08268 3.08268 0 0 1 6.17 202.33 A3.08268 3.08268 0 1 1 0 202.33 Z" class="st16"/>
		</g>
		<g id="shape127-73" v:mID="127" v:groupContext="shape" transform="translate(164.659,-98.9665)">
			<title>圆形.127</title>
			<v:userDefs>
				<v:ud v:nameU="visVersion" v:val="VT0(15):26"/>
			</v:userDefs>
			<g id="shadow127-74" v:groupContext="shadow" v:shadowOffsetX="0.345598" v:shadowOffsetY="-1.97279" v:shadowType="1"
					transform="matrix(1,0,0,1,0.345598,1.97279)" class="st14">
				<path d="M0 202.33 A3.08268 3.08268 0 0 1 6.17 202.33 A3.08268 3.08268 0 1 1 0 202.33 Z" class="st15"/>
			</g>
			<path d="M0 202.33 A3.08268 3.08268 0 0 1 6.17 202.33 A3.08268 3.08268 0 1 1 0 202.33 Z" class="st16"/>
		</g>
		<g id="shape128-78" v:mID="128" v:groupContext="shape" transform="translate(191.341,-96.1319)">
			<title>圆形.128</title>
			<v:userDefs>
				<v:ud v:nameU="visVersion" v:val="VT0(15):26"/>
			</v:userDefs>
			<g id="shadow128-79" v:groupContext="shadow" v:shadowOffsetX="0.345598" v:shadowOffsetY="-1.97279" v:shadowType="1"
					transform="matrix(1,0,0,1,0.345598,1.97279)" class="st14">
				<path d="M0 202.33 A3.08268 3.08268 0 0 1 6.17 202.33 A3.08268 3.08268 0 1 1 0 202.33 Z" class="st15"/>
			</g>
			<path d="M0 202.33 A3.08268 3.08268 0 0 1 6.17 202.33 A3.08268 3.08268 0 1 1 0 202.33 Z" class="st16"/>
		</g>
		<g id="shape129-83" v:mID="129" v:groupContext="shape" transform="translate(208.596,-100.384)">
			<title>圆形.129</title>
			<v:userDefs>
				<v:ud v:nameU="visVersion" v:val="VT0(15):26"/>
			</v:userDefs>
			<g id="shadow129-84" v:groupContext="shadow" v:shadowOffsetX="0.345598" v:shadowOffsetY="-1.97279" v:shadowType="1"
					transform="matrix(1,0,0,1,0.345598,1.97279)" class="st14">
				<path d="M0 202.33 A3.08268 3.08268 0 0 1 6.17 202.33 A3.08268 3.08268 0 1 1 0 202.33 Z" class="st15"/>
			</g>
			<path d="M0 202.33 A3.08268 3.08268 0 0 1 6.17 202.33 A3.08268 3.08268 0 1 1 0 202.33 Z" class="st16"/>
		</g>
		<g id="shape130-88" v:mID="130" v:groupContext="shape" transform="translate(222.77,-96.1319)">
			<title>圆形.130</title>
			<v:userDefs>
				<v:ud v:nameU="visVersion" v:val="VT0(15):26"/>
			</v:userDefs>
			<g id="shadow130-89" v:groupContext="shadow" v:shadowOffsetX="0.345598" v:shadowOffsetY="-1.97279" v:shadowType="1"
					transform="matrix(1,0,0,1,0.345598,1.97279)" class="st14">
				<path d="M0 202.33 A3.08268 3.08268 0 0 1 6.17 202.33 A3.08268 3.08268 0 1 1 0 202.33 Z" class="st15"/>
			</g>
			<path d="M0 202.33 A3.08268 3.08268 0 0 1 6.17 202.33 A3.08268 3.08268 0 1 1 0 202.33 Z" class="st16"/>
		</g>
		<g id="shape131-93" v:mID="131" v:groupContext="shape" transform="translate(239.53,-97.7972)">
			<title>圆形.131</title>
			<v:userDefs>
				<v:ud v:nameU="visVersion" v:val="VT0(15):26"/>
			</v:userDefs>
			<g id="shadow131-94" v:groupContext="shadow" v:shadowOffsetX="0.345598" v:shadowOffsetY="-1.97279" v:shadowType="1"
					transform="matrix(1,0,0,1,0.345598,1.97279)" class="st14">
				<path d="M0 202.33 A3.08268 3.08268 0 0 1 6.17 202.33 A3.08268 3.08268 0 1 1 0 202.33 Z" class="st15"/>
			</g>
			<path d="M0 202.33 A3.08268 3.08268 0 0 1 6.17 202.33 A3.08268 3.08268 0 1 1 0 202.33 Z" class="st16"/>
		</g>
		<g id="shape132-98" v:mID="132" v:groupContext="shape" transform="translate(256.289,-91.8799)">
			<title>圆形.132</title>
			<v:userDefs>
				<v:ud v:nameU="visVersion" v:val="VT0(15):26"/>
			</v:userDefs>
			<g id="shadow132-99" v:groupContext="shadow" v:shadowOffsetX="0.345598" v:shadowOffsetY="-1.97279" v:shadowType="1"
					transform="matrix(1,0,0,1,0.345598,1.97279)" class="st14">
				<path d="M0 202.33 A3.08268 3.08268 0 0 1 6.17 202.33 A3.08268 3.08268 0 1 1 0 202.33 Z" class="st15"/>
			</g>
			<path d="M0 202.33 A3.08268 3.08268 0 0 1 6.17 202.33 A3.08268 3.08268 0 1 1 0 202.33 Z" class="st16"/>
		</g>
		<g id="shape133-103" v:mID="133" v:groupContext="shape" transform="translate(273.049,-99.4626)">
			<title>圆形.133</title>
			<v:userDefs>
				<v:ud v:nameU="visVersion" v:val="VT0(15):26"/>
			</v:userDefs>
			<g id="shadow133-104" v:groupContext="shadow" v:shadowOffsetX="0.345598" v:shadowOffsetY="-1.97279" v:shadowType="1"
					transform="matrix(1,0,0,1,0.345598,1.97279)" class="st14">
				<path d="M0 202.33 A3.08268 3.08268 0 0 1 6.17 202.33 A3.08268 3.08268 0 1 1 0 202.33 Z" class="st15"/>
			</g>
			<path d="M0 202.33 A3.08268 3.08268 0 0 1 6.17 202.33 A3.08268 3.08268 0 1 1 0 202.33 Z" class="st16"/>
		</g>
		<g id="shape134-108" v:mID="134" v:groupContext="shape" transform="translate(289.809,-92.128)">
			<title>圆形.134</title>
			<v:userDefs>
				<v:ud v:nameU="visVersion" v:val="VT0(15):26"/>
			</v:userDefs>
			<g id="shadow134-109" v:groupContext="shadow" v:shadowOffsetX="0.345598" v:shadowOffsetY="-1.97279" v:shadowType="1"
					transform="matrix(1,0,0,1,0.345598,1.97279)" class="st14">
				<path d="M0 202.33 A3.08268 3.08268 0 0 1 6.17 202.33 A3.08268 3.08268 0 1 1 0 202.33 Z" class="st15"/>
			</g>
			<path d="M0 202.33 A3.08268 3.08268 0 0 1 6.17 202.33 A3.08268 3.08268 0 1 1 0 202.33 Z" class="st16"/>
		</g>
		<g id="shape135-113" v:mID="135" v:groupContext="shape" transform="translate(301.644,-99.4626)">
			<title>圆形.135</title>
			<v:userDefs>
				<v:ud v:nameU="visVersion" v:val="VT0(15):26"/>
			</v:userDefs>
			<g id="shadow135-114" v:groupContext="shadow" v:shadowOffsetX="0.345598" v:shadowOffsetY="-1.97279" v:shadowType="1"
					transform="matrix(1,0,0,1,0.345598,1.97279)" class="st14">
				<path d="M0 202.33 A3.08268 3.08268 0 0 1 6.17 202.33 A3.08268 3.08268 0 1 1 0 202.33 Z" class="st15"/>
			</g>
			<path d="M0 202.33 A3.08268 3.08268 0 0 1 6.17 202.33 A3.08268 3.08268 0 1 1 0 202.33 Z" class="st16"/>
		</g>
		<g id="shape136-118" v:mID="136" v:groupContext="shape" transform="translate(317.482,-107.47)">
			<title>圆形.136</title>
			<v:userDefs>
				<v:ud v:nameU="visVersion" v:val="VT0(15):26"/>
			</v:userDefs>
			<g id="shadow136-119" v:groupContext="shadow" v:shadowOffsetX="0.345598" v:shadowOffsetY="-1.97279" v:shadowType="1"
					transform="matrix(1,0,0,1,0.345598,1.97279)" class="st14">
				<path d="M0 202.33 A3.08268 3.08268 0 0 1 6.17 202.33 A3.08268 3.08268 0 1 1 0 202.33 Z" class="st15"/>
			</g>
			<path d="M0 202.33 A3.08268 3.08268 0 0 1 6.17 202.33 A3.08268 3.08268 0 1 1 0 202.33 Z" class="st16"/>
		</g>
		<g id="shape137-123" v:mID="137" v:groupContext="shape" transform="translate(333.321,-104.636)">
			<title>圆形.137</title>
			<v:userDefs>
				<v:ud v:nameU="visVersion" v:val="VT0(15):26"/>
			</v:userDefs>
			<g id="shadow137-124" v:groupContext="shadow" v:shadowOffsetX="0.345598" v:shadowOffsetY="-1.97279" v:shadowType="1"
					transform="matrix(1,0,0,1,0.345598,1.97279)" class="st14">
				<path d="M0 202.33 A3.08268 3.08268 0 0 1 6.17 202.33 A3.08268 3.08268 0 1 1 0 202.33 Z" class="st15"/>
			</g>
			<path d="M0 202.33 A3.08268 3.08268 0 0 1 6.17 202.33 A3.08268 3.08268 0 1 1 0 202.33 Z" class="st16"/>
		</g>
		<g id="shape138-128" v:mID="138" v:groupContext="shape" transform="translate(344.163,-97.7972)">
			<title>圆形.138</title>
			<v:userDefs>
				<v:ud v:nameU="visVersion" v:val="VT0(15):26"/>
			</v:userDefs>
			<g id="shadow138-129" v:groupContext="shadow" v:shadowOffsetX="0.345598" v:shadowOffsetY="-1.97279" v:shadowType="1"
					transform="matrix(1,0,0,1,0.345598,1.97279)" class="st14">
				<path d="M0 202.33 A3.08268 3.08268 0 0 1 6.17 202.33 A3.08268 3.08268 0 1 1 0 202.33 Z" class="st15"/>
			</g>
			<path d="M0 202.33 A3.08268 3.08268 0 0 1 6.17 202.33 A3.08268 3.08268 0 1 1 0 202.33 Z" class="st16"/>
		</g>
	</g>
</svg>
