<?xml version="1.0" encoding="UTF-8" standalone="no"?>
<!DOCTYPE svg PUBLIC "-//W3C//DTD SVG 1.1//EN" "http://www.w3.org/Graphics/SVG/1.1/DTD/svg11.dtd">
<!-- 由 Microsoft Visio, SVG Export 生成 sync_window2.svg 页-1 -->
<svg xmlns="http://www.w3.org/2000/svg" xmlns:xlink="http://www.w3.org/1999/xlink" xmlns:ev="http://www.w3.org/2001/xml-events"
		xmlns:v="http://schemas.microsoft.com/visio/2003/SVGExtensions/" width="6.43431in" height="1.42294in"
		viewBox="0 0 463.27 102.451" xml:space="preserve" color-interpolation-filters="sRGB" class="st13">
	<v:documentProperties v:langID="2052" v:metric="true" v:viewMarkup="false"/>

	<style type="text/css">
	<![CDATA[
		.st1 {visibility:visible}
		.st2 {fill:none;filter:url(#filter_2);stroke:#5b9bd5;stroke-dasharray:0.5,1;stroke-opacity:0.22}
		.st3 {fill:none;stroke:#000000;stroke-dasharray:0.5,1;stroke-width:0.5}
		.st4 {marker-end:url(#mrkr13-16);stroke:#000000;stroke-linecap:round;stroke-linejoin:round;stroke-width:1}
		.st5 {fill:#000000;fill-opacity:1;stroke:#000000;stroke-opacity:1;stroke-width:0.28409090909091}
		.st6 {fill:none;stroke:none;stroke-width:0.25}
		.st7 {fill:#000000;font-family:Times New Roman;font-size:1.00001em}
		.st8 {fill:#5b9bd5;fill-opacity:0.22;filter:url(#filter_2);stroke:none}
		.st9 {fill:#ff0000;stroke:none;stroke-width:0.25}
		.st10 {fill:#ff0000;font-family:Times New Roman;font-size:1.00001em;font-style:italic}
		.st11 {font-size:1em;font-style:normal}
		.st12 {baseline-shift:-32.4941%;font-size:0.649882em;font-style:normal}
		.st13 {fill:none;fill-rule:evenodd;font-size:12px;overflow:visible;stroke-linecap:square;stroke-miterlimit:3}
	]]>
	</style>

	<defs id="Markers">
		<g id="lend13">
			<path d="M 3 1 L 0 0 L 3 -1 L 3 1 " style="stroke:none"/>
		</g>
		<marker id="mrkr13-16" class="st5" v:arrowType="13" v:arrowSize="2" v:setback="10.56" refX="-10.56" orient="auto"
				markerUnits="strokeWidth" overflow="visible">
			<use xlink:href="#lend13" transform="scale(-3.52,-3.52) "/>
		</marker>
	</defs>
	<defs id="Filters">
		<filter id="filter_2">
			<feGaussianBlur stdDeviation="2"/>
		</filter>
	</defs>
	<g v:mID="0" v:index="1" v:groupContext="foregroundPage">
		<title>页-1</title>
		<v:pageProperties v:drawingScale="0.0393701" v:pageScale="0.0393701" v:drawingUnits="24" v:shadowOffsetX="8.50394"
				v:shadowOffsetY="-8.50394"/>
		<g id="shape69-1" v:mID="69" v:groupContext="shape" transform="translate(294.369,-17.2544)">
			<title>矩形.69</title>
			<v:userDefs>
				<v:ud v:nameU="visVersion" v:val="VT0(15):26"/>
			</v:userDefs>
			<g id="shadow69-2" v:groupContext="shadow" v:shadowOffsetX="0.345598" v:shadowOffsetY="-1.97279" v:shadowType="1"
					transform="matrix(1,0,0,1,0.345598,1.97279)" class="st1">
				<path d="M0 102.45 L87.24 102.45 L87.24 67.02 L0 67.02 L0 102.45 Z" class="st2"/>
			</g>
			<path d="M0 102.45 L87.24 102.45 L87.24 67.02 L0 67.02 L0 102.45 Z" class="st3"/>
		</g>
		<g id="shape70-6" v:mID="70" v:groupContext="shape" transform="translate(338.022,-17.2544)">
			<title>矩形.70</title>
			<v:userDefs>
				<v:ud v:nameU="visVersion" v:val="VT0(15):26"/>
			</v:userDefs>
			<g id="shadow70-7" v:groupContext="shadow" v:shadowOffsetX="0.345598" v:shadowOffsetY="-1.97279" v:shadowType="1"
					transform="matrix(1,0,0,1,0.345598,1.97279)" class="st1">
				<path d="M0 102.45 L43.58 102.45 L43.58 81.19 L0 81.19 L0 102.45 Z" class="st2"/>
			</g>
			<path d="M0 102.45 L43.58 102.45 L43.58 81.19 L0 81.19 L0 102.45 Z" class="st3"/>
		</g>
		<g id="shape71-11" v:mID="71" v:groupContext="shape" transform="translate(11.1312,-17.402)">
			<title>工作表.71</title>
			<path d="M0 102.45 L393.75 102.45" class="st4"/>
		</g>
		<g id="shape72-17" v:mID="72" v:groupContext="shape" transform="translate(377.353,-17.9631)">
			<title>工作表.72</title>
			<desc>B</desc>
			<v:textBlock v:margins="rect(4,4,4,4)" v:tabSpace="42.5197"/>
			<v:textRect cx="11.1518" cy="95.6453" width="22.31" height="13.6121"/>
			<rect x="0" y="88.8392" width="22.3037" height="13.6121" class="st6"/>
			<text x="7.15" y="99.25" class="st7" v:langID="2052"><v:paragraph v:horizAlign="1"/><v:tabList/>B</text>		</g>
		<g id="shape73-20" v:mID="73" v:groupContext="shape" transform="translate(18.8127,-0.955224)">
			<title>工作表.73</title>
			<desc>24</desc>
			<v:textBlock v:margins="rect(4,4,4,4)" v:tabSpace="42.5197"/>
			<v:textRect cx="11.1518" cy="95.6453" width="22.31" height="13.6121"/>
			<rect x="0" y="88.8392" width="22.3037" height="13.6121" class="st6"/>
			<text x="5.15" y="99.25" class="st7" v:langID="2052"><v:paragraph v:horizAlign="1"/><v:tabList/>24</text>		</g>
		<g id="shape74-23" v:mID="74" v:groupContext="shape" transform="translate(136.595,-1.23579)">
			<title>工作表.74</title>
			<desc>31</desc>
			<v:textBlock v:margins="rect(4,4,4,4)" v:tabSpace="42.5197"/>
			<v:textRect cx="11.1518" cy="95.6453" width="22.31" height="13.6121"/>
			<rect x="0" y="88.8392" width="22.3037" height="13.6121" class="st6"/>
			<text x="5.15" y="99.25" class="st7" v:langID="2052"><v:paragraph v:horizAlign="1"/><v:tabList/>31</text>		</g>
		<g id="shape75-26" v:mID="75" v:groupContext="shape" transform="translate(179.344,-1.51635)">
			<title>工作表.75</title>
			<desc>34</desc>
			<v:textBlock v:margins="rect(4,4,4,4)" v:tabSpace="42.5197"/>
			<v:textRect cx="11.1518" cy="95.6453" width="22.31" height="13.6121"/>
			<rect x="0" y="88.8392" width="22.3037" height="13.6121" class="st6"/>
			<text x="5.15" y="99.25" class="st7" v:langID="2052"><v:paragraph v:horizAlign="1"/><v:tabList/>34</text>		</g>
		<g id="shape77-29" v:mID="77" v:groupContext="shape" transform="translate(238.871,-1.23579)">
			<title>工作表.77</title>
			<desc>38</desc>
			<v:textBlock v:margins="rect(4,4,4,4)" v:tabSpace="42.5197"/>
			<v:textRect cx="11.1518" cy="95.6453" width="22.31" height="13.6121"/>
			<rect x="0" y="88.8392" width="22.3037" height="13.6121" class="st6"/>
			<text x="5.15" y="99.25" class="st7" v:langID="2052"><v:paragraph v:horizAlign="1"/><v:tabList/>38</text>		</g>
		<g id="shape78-32" v:mID="78" v:groupContext="shape" transform="translate(283.767,-0.479883)">
			<title>工作表.78</title>
			<desc>41</desc>
			<v:textBlock v:margins="rect(4,4,4,4)" v:tabSpace="42.5197"/>
			<v:textRect cx="11.1518" cy="95.6453" width="22.31" height="13.6121"/>
			<rect x="0" y="88.8392" width="22.3037" height="13.6121" class="st6"/>
			<text x="5.15" y="99.25" class="st7" v:langID="2052"><v:paragraph v:horizAlign="1"/><v:tabList/>41</text>		</g>
		<g id="shape79-35" v:mID="79" v:groupContext="shape" transform="translate(326.745,-1.23579)">
			<title>工作表.79</title>
			<desc>44</desc>
			<v:textBlock v:margins="rect(4,4,4,4)" v:tabSpace="42.5197"/>
			<v:textRect cx="11.1518" cy="95.6453" width="22.31" height="13.6121"/>
			<rect x="0" y="88.8392" width="22.3037" height="13.6121" class="st6"/>
			<text x="5.15" y="99.25" class="st7" v:langID="2052"><v:paragraph v:horizAlign="1"/><v:tabList/>44</text>		</g>
		<g id="shape80-38" v:mID="80" v:groupContext="shape" transform="translate(370.309,-0.955224)">
			<title>工作表.80</title>
			<desc>47</desc>
			<v:textBlock v:margins="rect(4,4,4,4)" v:tabSpace="42.5197"/>
			<v:textRect cx="11.1518" cy="95.6453" width="22.31" height="13.6121"/>
			<rect x="0" y="88.8392" width="22.3037" height="13.6121" class="st6"/>
			<text x="5.15" y="99.25" class="st7" v:langID="2052"><v:paragraph v:horizAlign="1"/><v:tabList/>47</text>		</g>
		<g id="shape81-41" v:mID="81" v:groupContext="shape" transform="translate(250.148,-17.2544)">
			<title>矩形.81</title>
			<v:userDefs>
				<v:ud v:nameU="visVersion" v:val="VT0(15):26"/>
			</v:userDefs>
			<g id="shadow81-42" v:groupContext="shadow" v:shadowOffsetX="0.345598" v:shadowOffsetY="-1.97279" v:shadowType="1"
					transform="matrix(1,0,0,1,0.345598,1.97279)" class="st1">
				<path d="M0 102.45 L131.46 102.45 L131.46 51.43 L0 51.43 L0 102.45 Z" class="st2"/>
			</g>
			<path d="M0 102.45 L131.46 102.45 L131.46 51.43 L0 51.43 L0 102.45 Z" class="st3"/>
		</g>
		<g id="shape82-46" v:mID="82" v:groupContext="shape" transform="translate(190.621,-17.2544)">
			<title>矩形.82</title>
			<v:userDefs>
				<v:ud v:nameU="visVersion" v:val="VT0(15):26"/>
			</v:userDefs>
			<g id="shadow82-47" v:groupContext="shadow" v:shadowOffsetX="0.345598" v:shadowOffsetY="-1.97279" v:shadowType="1"
					transform="matrix(1,0,0,1,0.345598,1.97279)" class="st1">
				<path d="M0 102.45 L190.98 102.45 L190.98 37.25 L0 37.25 L0 102.45 Z" class="st2"/>
			</g>
			<path d="M0 102.45 L190.98 102.45 L190.98 37.25 L0 37.25 L0 102.45 Z" class="st3"/>
		</g>
		<g id="shape83-51" v:mID="83" v:groupContext="shape" transform="translate(148.101,-17.2544)">
			<title>矩形.83</title>
			<v:userDefs>
				<v:ud v:nameU="visVersion" v:val="VT0(15):26"/>
			</v:userDefs>
			<g id="shadow83-52" v:groupContext="shadow" v:shadowOffsetX="0.345598" v:shadowOffsetY="-1.97279" v:shadowType="1"
					transform="matrix(1,0,0,1,0.345598,1.97279)" class="st1">
				<path d="M0 102.45 L233.5 102.45 L233.5 19.54 L0 19.54 L0 102.45 Z" class="st2"/>
			</g>
			<path d="M0 102.45 L233.5 102.45 L233.5 19.54 L0 19.54 L0 102.45 Z" class="st3"/>
		</g>
		<g id="shape84-56" v:mID="84" v:groupContext="shape" transform="translate(247.418,-15.1285)">
			<title>圆形.84</title>
			<v:userDefs>
				<v:ud v:nameU="visVersion" v:val="VT0(15):26"/>
			</v:userDefs>
			<g id="shadow84-57" v:groupContext="shadow" v:shadowOffsetX="0.345598" v:shadowOffsetY="-1.97279" v:shadowType="1"
					transform="matrix(1,0,0,1,0.345598,1.97279)" class="st1">
				<path d="M0 99.85 A2.60554 2.60554 0 0 1 5.21 99.85 A2.60554 2.60554 0 1 1 0 99.85 Z" class="st8"/>
			</g>
			<path d="M0 99.85 A2.60554 2.60554 0 0 1 5.21 99.85 A2.60554 2.60554 0 1 1 0 99.85 Z" class="st9"/>
		</g>
		<g id="shape85-61" v:mID="85" v:groupContext="shape" transform="translate(292.314,-15.1285)">
			<title>圆形.85</title>
			<v:userDefs>
				<v:ud v:nameU="visVersion" v:val="VT0(15):26"/>
			</v:userDefs>
			<g id="shadow85-62" v:groupContext="shadow" v:shadowOffsetX="0.345598" v:shadowOffsetY="-1.97279" v:shadowType="1"
					transform="matrix(1,0,0,1,0.345598,1.97279)" class="st1">
				<path d="M0 99.85 A2.60554 2.60554 0 0 1 5.21 99.85 A2.60554 2.60554 0 1 1 0 99.85 Z" class="st8"/>
			</g>
			<path d="M0 99.85 A2.60554 2.60554 0 0 1 5.21 99.85 A2.60554 2.60554 0 1 1 0 99.85 Z" class="st9"/>
		</g>
		<g id="shape86-66" v:mID="86" v:groupContext="shape" transform="translate(27.359,-14.7964)">
			<title>圆形.86</title>
			<v:userDefs>
				<v:ud v:nameU="visVersion" v:val="VT0(15):26"/>
			</v:userDefs>
			<g id="shadow86-67" v:groupContext="shadow" v:shadowOffsetX="0.345598" v:shadowOffsetY="-1.97279" v:shadowType="1"
					transform="matrix(1,0,0,1,0.345598,1.97279)" class="st1">
				<path d="M0 99.85 A2.60554 2.60554 0 0 1 5.21 99.85 A2.60554 2.60554 0 1 1 0 99.85 Z" class="st8"/>
			</g>
			<path d="M0 99.85 A2.60554 2.60554 0 0 1 5.21 99.85 A2.60554 2.60554 0 1 1 0 99.85 Z" class="st9"/>
		</g>
		<g id="shape87-71" v:mID="87" v:groupContext="shape" transform="translate(187.89,-14.7964)">
			<title>圆形.87</title>
			<v:userDefs>
				<v:ud v:nameU="visVersion" v:val="VT0(15):26"/>
			</v:userDefs>
			<g id="shadow87-72" v:groupContext="shadow" v:shadowOffsetX="0.345598" v:shadowOffsetY="-1.97279" v:shadowType="1"
					transform="matrix(1,0,0,1,0.345598,1.97279)" class="st1">
				<path d="M0 99.85 A2.60554 2.60554 0 0 1 5.21 99.85 A2.60554 2.60554 0 1 1 0 99.85 Z" class="st8"/>
			</g>
			<path d="M0 99.85 A2.60554 2.60554 0 0 1 5.21 99.85 A2.60554 2.60554 0 1 1 0 99.85 Z" class="st9"/>
		</g>
		<g id="shape88-76" v:mID="88" v:groupContext="shape" transform="translate(335.292,-15.1285)">
			<title>圆形.88</title>
			<v:userDefs>
				<v:ud v:nameU="visVersion" v:val="VT0(15):26"/>
			</v:userDefs>
			<g id="shadow88-77" v:groupContext="shadow" v:shadowOffsetX="0.345598" v:shadowOffsetY="-1.97279" v:shadowType="1"
					transform="matrix(1,0,0,1,0.345598,1.97279)" class="st1">
				<path d="M0 99.85 A2.60554 2.60554 0 0 1 5.21 99.85 A2.60554 2.60554 0 1 1 0 99.85 Z" class="st8"/>
			</g>
			<path d="M0 99.85 A2.60554 2.60554 0 0 1 5.21 99.85 A2.60554 2.60554 0 1 1 0 99.85 Z" class="st9"/>
		</g>
		<g id="shape89-81" v:mID="89" v:groupContext="shape" transform="translate(145.141,-14.7964)">
			<title>圆形.89</title>
			<v:userDefs>
				<v:ud v:nameU="visVersion" v:val="VT0(15):26"/>
			</v:userDefs>
			<g id="shadow89-82" v:groupContext="shadow" v:shadowOffsetX="0.345598" v:shadowOffsetY="-1.97279" v:shadowType="1"
					transform="matrix(1,0,0,1,0.345598,1.97279)" class="st1">
				<path d="M0 99.85 A2.60554 2.60554 0 0 1 5.21 99.85 A2.60554 2.60554 0 1 1 0 99.85 Z" class="st8"/>
			</g>
			<path d="M0 99.85 A2.60554 2.60554 0 0 1 5.21 99.85 A2.60554 2.60554 0 1 1 0 99.85 Z" class="st9"/>
		</g>
		<g id="shape90-86" v:mID="90" v:groupContext="shape" transform="translate(347.313,-30.0529)">
			<title>工作表.90</title>
			<desc>w1</desc>
			<v:textBlock v:margins="rect(4,4,4,4)" v:tabSpace="42.5197"/>
			<v:textRect cx="12.5008" cy="97.5332" width="25.01" height="9.83622"/>
			<rect x="0" y="92.6151" width="25.0016" height="9.83622" class="st6"/>
			<text x="5.5" y="101.13" class="st10" v:langID="2052"><v:paragraph v:horizAlign="1"/><v:tabList/>w<tspan class="st11">1</tspan></text>		</g>
		<g id="shape91-90" v:mID="91" v:groupContext="shape" transform="translate(325.486,-42.8513)">
			<title>工作表.91</title>
			<desc>w2</desc>
			<v:textBlock v:margins="rect(4,4,4,4)" v:tabSpace="42.5197"/>
			<v:textRect cx="12.5008" cy="97.5332" width="25.01" height="9.83622"/>
			<rect x="0" y="92.6151" width="25.0016" height="9.83622" class="st6"/>
			<text x="5.5" y="101.13" class="st10" v:langID="2052"><v:paragraph v:horizAlign="1"/><v:tabList/>w<tspan class="st11">2</tspan></text>		</g>
		<g id="shape92-94" v:mID="92" v:groupContext="shape" transform="translate(293.731,-58.4418)">
			<title>工作表.92</title>
			<desc>w3</desc>
			<v:textBlock v:margins="rect(4,4,4,4)" v:tabSpace="42.5197"/>
			<v:textRect cx="12.5008" cy="97.5332" width="25.01" height="9.83622"/>
			<rect x="0" y="92.6151" width="25.0016" height="9.83622" class="st6"/>
			<text x="5.5" y="101.13" class="st10" v:langID="2052"><v:paragraph v:horizAlign="1"/><v:tabList/>w<tspan class="st11">3</tspan></text>		</g>
		<g id="shape93-98" v:mID="93" v:groupContext="shape" transform="translate(259.97,-72.6151)">
			<title>工作表.93</title>
			<desc>w4</desc>
			<v:textBlock v:margins="rect(4,4,4,4)" v:tabSpace="42.5197"/>
			<v:textRect cx="12.5008" cy="97.5332" width="25.01" height="9.83622"/>
			<rect x="0" y="92.6151" width="25.0016" height="9.83622" class="st6"/>
			<text x="5.5" y="101.13" class="st10" v:langID="2052"><v:paragraph v:horizAlign="1"/><v:tabList/>w<tspan class="st11">4</tspan></text>		</g>
		<g id="shape94-102" v:mID="94" v:groupContext="shape" transform="translate(228.888,-90.3316)">
			<title>工作表.94</title>
			<desc>wmax</desc>
			<v:textBlock v:margins="rect(4,4,4,4)" v:tabSpace="42.5197"/>
			<v:textRect cx="21.7913" cy="97.5332" width="43.59" height="9.83622"/>
			<rect x="0" y="92.6151" width="43.5827" height="9.83622" class="st6"/>
			<text x="11.08" y="101.13" class="st10" v:langID="2052"><v:paragraph v:horizAlign="1"/><v:tabList/>w<tspan
						dy="-0.279em" class="st12" v:baseFontSize="12">max</tspan></text>		</g>
		<g id="shape95-106" v:mID="95" v:groupContext="shape" transform="translate(397.824,-0.394095)">
			<title>工作表.95</title>
			<desc>cnt_48</desc>
			<v:textBlock v:margins="rect(4,4,4,4)" v:tabSpace="42.5197"/>
			<v:textRect cx="32.5984" cy="95.6453" width="65.2" height="13.6121"/>
			<rect x="0" y="88.8392" width="65.1969" height="13.6121" class="st6"/>
			<text x="16.27" y="99.25" class="st7" v:langID="2052"><v:paragraph v:horizAlign="1"/><v:tabList/>cnt_48</text>		</g>
		<g id="shape76-109" v:mID="76" v:groupContext="shape" transform="translate(378.855,-14.7964)">
			<title>圆形.76</title>
			<v:userDefs>
				<v:ud v:nameU="visVersion" v:val="VT0(15):26"/>
			</v:userDefs>
			<g id="shadow76-110" v:groupContext="shadow" v:shadowOffsetX="0.345598" v:shadowOffsetY="-1.97279" v:shadowType="1"
					transform="matrix(1,0,0,1,0.345598,1.97279)" class="st1">
				<path d="M0 99.85 A2.60554 2.60554 0 0 1 5.21 99.85 A2.60554 2.60554 0 1 1 0 99.85 Z" class="st8"/>
			</g>
			<path d="M0 99.85 A2.60554 2.60554 0 0 1 5.21 99.85 A2.60554 2.60554 0 1 1 0 99.85 Z" class="st9"/>
		</g>
	</g>
</svg>
