xpm_cdc.sv,systemverilog,xil_defaultlib,../../../../../../../Xilinx/Vivado/2019.1/data/ip/xpm/xpm_cdc/hdl/xpm_cdc.sv,incdir="../../../../Ethernet_PHY.srcs/sources_1/ip/pll_125M_200M"
xpm_memory.sv,systemverilog,xil_defaultlib,../../../../../../../Xilinx/Vivado/2019.1/data/ip/xpm/xpm_memory/hdl/xpm_memory.sv,incdir="../../../../Ethernet_PHY.srcs/sources_1/ip/pll_125M_200M"
xpm_VCOMP.vhd,vhdl,xpm,../../../../../../../Xilinx/Vivado/2019.1/data/ip/xpm/xpm_VCOMP.vhd,incdir="../../../../Ethernet_PHY.srcs/sources_1/ip/pll_125M_200M"
pll_125M_200M_sim_netlist.v,verilog,xil_defaultlib,../../../ip/pll_125M_200M/pll_125M_200M_sim_netlist.v,incdir="../../../../Ethernet_PHY.srcs/sources_1/ip/pll_125M_200M"
glbl.v,Verilog,xil_defaultlib,glbl.v
