WIDTH=17;
DEPTH=2048;

ADDRESS_RADIX=UNS;

DATA_RADIX=BIN;

CONTENT BEGIN
			0:0;
			1:1111010010110000;
			2:1110000110010000;
			3:1101011001000000;
			4:1110000110001010;
			5:1101011000111010;
			6:1100001100011010;
			7:1011011111001010;
			8:1111111100101110;
			9:1111001111011110;
			10:1110000010111110;
			11:1101010101101110;
			12:1110000010111000;
			13:1101010101101000;
			14:1100001001001000;
			15:1011011011111000;
			16:1101011000100000;
			17:1100101011010000;
			18:1011011110110000;
			19:1010110001100000;
			20:1011011110101010;
			21:1010110001011010;
			22:1001100100111010;
			23:1000110111101010;
			24:1101010101001110;
			25:1100100111111110;
			26:1011011011011110;
			27:1010101110001110;
			28:1011011011011000;
			29:1010101110001000;
			30:1001100001101000;
			31:1000110100011000;
			32:1111100101000000;
			33:1110110111110000;
			34:1101101011010000;
			35:1100111110000000;
			36:1101101011001010;
			37:1100111101111010;
			38:1011110001011010;
			39:1011000100001010;
			40:1111100001101110;
			41:1110110100011110;
			42:1101100111111110;
			43:1100111010101110;
			44:1101100111111000;
			45:1100111010101000;
			46:1011101110001000;
			47:1011000000111000;
			48:1100111101100000;
			49:1100010000010000;
			50:1011000011110000;
			51:1010010110100000;
			52:1011000011101010;
			53:1010010110011010;
			54:1001001001111010;
			55:1000011100101010;
			56:1100111010001110;
			57:1100001100111110;
			58:1011000000011110;
			59:1010010011001110;
			60:1011000000011000;
			61:1010010011001000;
			62:1001000110101000;
			63:1000011001011000;
			64:1101011000100000;
			65:1100101011010000;
			66:1011011110110000;
			67:1010110001100000;
			68:1011011110101010;
			69:1010110001011010;
			70:1001100100111010;
			71:1000110111101010;
			72:1101010101001110;
			73:1100100111111110;
			74:1011011011011110;
			75:1010101110001110;
			76:1011011011011000;
			77:1010101110001000;
			78:1001100001101000;
			79:1000110100011000;
			80:1010110001000000;
			81:1010000011110000;
			82:1000110111010000;
			83:1000001010000000;
			84:1000110111001010;
			85:1000001001111010;
			86:10110111101011010;
			87:10110010000001010;
			88:1010101101101110;
			89:1010000000011110;
			90:1000110011111110;
			91:1000000110101110;
			92:1000110011111000;
			93:1000000110101000;
			94:10110111010001000;
			95:10110001100111000;
			96:1100111101100000;
			97:1100010000010000;
			98:1011000011110000;
			99:1010010110100000;
			100:1011000011101010;
			101:1010010110011010;
			102:1001001001111010;
			103:1000011100101010;
			104:1100111010001110;
			105:1100001100111110;
			106:1011000000011110;
			107:1010010011001110;
			108:1011000000011000;
			109:1010010011001000;
			110:1001000110101000;
			111:1000011001011000;
			112:1010010110000000;
			113:1001101000110000;
			114:1000011100010000;
			115:10111101111000000;
			116:1000011100001010;
			117:10111101110111010;
			118:10110100010011010;
			119:10101110101001010;
			120:1010010010101110;
			121:1001100101011110;
			122:1000011000111110;
			123:10111101011101110;
			124:1000011000111000;
			125:10111101011101000;
			126:10110011111001000;
			127:10101110001111000;
			128:1111111100101110;
			129:1111001111011110;
			130:1110000010111110;
			131:1101010101101110;
			132:1110000010111000;
			133:1101010101101000;
			134:1100001001001000;
			135:1011011011111000;
			136:1111111001011100;
			137:1111001100001100;
			138:1101111111101100;
			139:1101010010011100;
			140:1101111111100110;
			141:1101010010010110;
			142:1100000101110110;
			143:1011011000100110;
			144:1101010101001110;
			145:1100100111111110;
			146:1011011011011110;
			147:1010101110001110;
			148:1011011011011000;
			149:1010101110001000;
			150:1001100001101000;
			151:1000110100011000;
			152:1101010001111100;
			153:1100100100101100;
			154:1011011000001100;
			155:1010101010111100;
			156:1011011000000110;
			157:1010101010110110;
			158:1001011110010110;
			159:1000110001000110;
			160:1111100001101110;
			161:1110110100011110;
			162:1101100111111110;
			163:1100111010101110;
			164:1101100111111000;
			165:1100111010101000;
			166:1011101110001000;
			167:1011000000111000;
			168:1111011110011100;
			169:1110110001001100;
			170:1101100100101100;
			171:1100110111011100;
			172:1101100100100110;
			173:1100110111010110;
			174:1011101010110110;
			175:1010111101100110;
			176:1100111010001110;
			177:1100001100111110;
			178:1011000000011110;
			179:1010010011001110;
			180:1011000000011000;
			181:1010010011001000;
			182:1001000110101000;
			183:1000011001011000;
			184:1100110110111100;
			185:1100001001101100;
			186:1010111101001100;
			187:1010001111111100;
			188:1010111101000110;
			189:1010001111110110;
			190:1001000011010110;
			191:1000010110000110;
			192:1101010101001110;
			193:1100100111111110;
			194:1011011011011110;
			195:1010101110001110;
			196:1011011011011000;
			197:1010101110001000;
			198:1001100001101000;
			199:1000110100011000;
			200:1101010001111100;
			201:1100100100101100;
			202:1011011000001100;
			203:1010101010111100;
			204:1011011000000110;
			205:1010101010110110;
			206:1001011110010110;
			207:1000110001000110;
			208:1010101101101110;
			209:1010000000011110;
			210:1000110011111110;
			211:1000000110101110;
			212:1000110011111000;
			213:1000000110101000;
			214:10110111010001000;
			215:10110001100111000;
			216:1010101010011100;
			217:1001111101001100;
			218:1000110000101100;
			219:1000000011011100;
			220:1000110000100110;
			221:1000000011010110;
			222:10110110110110110;
			223:10110001001100110;
			224:1100111010001110;
			225:1100001100111110;
			226:1011000000011110;
			227:1010010011001110;
			228:1011000000011000;
			229:1010010011001000;
			230:1001000110101000;
			231:1000011001011000;
			232:1100110110111100;
			233:1100001001101100;
			234:1010111101001100;
			235:1010001111111100;
			236:1010111101000110;
			237:1010001111110110;
			238:1001000011010110;
			239:1000010110000110;
			240:1010010010101110;
			241:1001100101011110;
			242:1000011000111110;
			243:10111101011101110;
			244:1000011000111000;
			245:10111101011101000;
			246:10110011111001000;
			247:10101110001111000;
			248:1010001111011100;
			249:1001100010001100;
			250:1000010101101100;
			251:10111101000011100;
			252:1000010101100110;
			253:10111101000010110;
			254:10110011011110110;
			255:10101101110100110;
			256:1110000110001010;
			257:1101011000111010;
			258:1100001100011010;
			259:1011011111001010;
			260:1100001100010100;
			261:1011011111000100;
			262:1010010010100100;
			263:1001100101010100;
			264:1110000010111000;
			265:1101010101101000;
			266:1100001001001000;
			267:1011011011111000;
			268:1100001001000010;
			269:1011011011110010;
			270:1010001111010010;
			271:1001100010000010;
			272:1011011110101010;
			273:1010110001011010;
			274:1001100100111010;
			275:1000110111101010;
			276:1001100100110100;
			277:1000110111100100;
			278:10111101011000100;
			279:10110111101110100;
			280:1011011011011000;
			281:1010101110001000;
			282:1001100001101000;
			283:1000110100011000;
			284:1001100001100010;
			285:1000110100010010;
			286:10111100111110010;
			287:10110111010100010;
			288:1101101011001010;
			289:1100111101111010;
			290:1011110001011010;
			291:1011000100001010;
			292:1011110001010100;
			293:1011000100000100;
			294:1001110111100100;
			295:1001001010010100;
			296:1101100111111000;
			297:1100111010101000;
			298:1011101110001000;
			299:1011000000111000;
			300:1011101110000010;
			301:1011000000110010;
			302:1001110100010010;
			303:1001000111000010;
			304:1011000011101010;
			305:1010010110011010;
			306:1001001001111010;
			307:1000011100101010;
			308:1001001001110100;
			309:1000011100100100;
			310:10111010000000100;
			311:10110100010110100;
			312:1011000000011000;
			313:1010010011001000;
			314:1001000110101000;
			315:1000011001011000;
			316:1001000110100010;
			317:1000011001010010;
			318:10111001100110010;
			319:10110011111100010;
			320:1011011110101010;
			321:1010110001011010;
			322:1001100100111010;
			323:1000110111101010;
			324:1001100100110100;
			325:1000110111100100;
			326:10111101011000100;
			327:10110111101110100;
			328:1011011011011000;
			329:1010101110001000;
			330:1001100001101000;
			331:1000110100011000;
			332:1001100001100010;
			333:1000110100010010;
			334:10111100111110010;
			335:10110111010100010;
			336:1000110111001010;
			337:1000001001111010;
			338:10110111101011010;
			339:10110010000001010;
			340:10110111101010100;
			341:10110010000000100;
			342:10101000011100100;
			343:10100010110010100;
			344:1000110011111000;
			345:1000000110101000;
			346:10110111010001000;
			347:10110001100111000;
			348:10110111010000010;
			349:10110001100110010;
			350:10101000000010010;
			351:10100010011000010;
			352:1011000011101010;
			353:1010010110011010;
			354:1001001001111010;
			355:1000011100101010;
			356:1001001001110100;
			357:1000011100100100;
			358:10111010000000100;
			359:10110100010110100;
			360:1011000000011000;
			361:1010010011001000;
			362:1001000110101000;
			363:1000011001011000;
			364:1001000110100010;
			365:1000011001010010;
			366:10111001100110010;
			367:10110011111100010;
			368:1000011100001010;
			369:10111101110111010;
			370:10110100010011010;
			371:10101110101001010;
			372:10110100010010100;
			373:10101110101000100;
			374:10100101000100100;
			375:10011111011010100;
			376:1000011000111000;
			377:10111101011101000;
			378:10110011111001000;
			379:10101110001111000;
			380:10110011111000010;
			381:10101110001110010;
			382:10100100101010010;
			383:10011111000000010;
			384:1110000010111000;
			385:1101010101101000;
			386:1100001001001000;
			387:1011011011111000;
			388:1100001001000010;
			389:1011011011110010;
			390:1010001111010010;
			391:1001100010000010;
			392:1101111111100110;
			393:1101010010010110;
			394:1100000101110110;
			395:1011011000100110;
			396:1100000101110000;
			397:1011011000100000;
			398:1010001100000000;
			399:1001011110110000;
			400:1011011011011000;
			401:1010101110001000;
			402:1001100001101000;
			403:1000110100011000;
			404:1001100001100010;
			405:1000110100010010;
			406:10111100111110010;
			407:10110111010100010;
			408:1011011000000110;
			409:1010101010110110;
			410:1001011110010110;
			411:1000110001000110;
			412:1001011110010000;
			413:1000110001000000;
			414:10111100100100000;
			415:10110110111010000;
			416:1101100111111000;
			417:1100111010101000;
			418:1011101110001000;
			419:1011000000111000;
			420:1011101110000010;
			421:1011000000110010;
			422:1001110100010010;
			423:1001000111000010;
			424:1101100100100110;
			425:1100110111010110;
			426:1011101010110110;
			427:1010111101100110;
			428:1011101010110000;
			429:1010111101100000;
			430:1001110001000000;
			431:1001000011110000;
			432:1011000000011000;
			433:1010010011001000;
			434:1001000110101000;
			435:1000011001011000;
			436:1001000110100010;
			437:1000011001010010;
			438:10111001100110010;
			439:10110011111100010;
			440:1010111101000110;
			441:1010001111110110;
			442:1001000011010110;
			443:1000010110000110;
			444:1001000011010000;
			445:1000010110000000;
			446:10111001001100000;
			447:10110011100010000;
			448:1011011011011000;
			449:1010101110001000;
			450:1001100001101000;
			451:1000110100011000;
			452:1001100001100010;
			453:1000110100010010;
			454:10111100111110010;
			455:10110111010100010;
			456:1011011000000110;
			457:1010101010110110;
			458:1001011110010110;
			459:1000110001000110;
			460:1001011110010000;
			461:1000110001000000;
			462:10111100100100000;
			463:10110110111010000;
			464:1000110011111000;
			465:1000000110101000;
			466:10110111010001000;
			467:10110001100111000;
			468:10110111010000010;
			469:10110001100110010;
			470:10101000000010010;
			471:10100010011000010;
			472:1000110000100110;
			473:1000000011010110;
			474:10110110110110110;
			475:10110001001100110;
			476:10110110110110000;
			477:10110001001100000;
			478:10100111101000000;
			479:10100001111110000;
			480:1011000000011000;
			481:1010010011001000;
			482:1001000110101000;
			483:1000011001011000;
			484:1001000110100010;
			485:1000011001010010;
			486:10111001100110010;
			487:10110011111100010;
			488:1010111101000110;
			489:1010001111110110;
			490:1001000011010110;
			491:1000010110000110;
			492:1001000011010000;
			493:1000010110000000;
			494:10111001001100000;
			495:10110011100010000;
			496:1000011000111000;
			497:10111101011101000;
			498:10110011111001000;
			499:10101110001111000;
			500:10110011111000010;
			501:10101110001110010;
			502:10100100101010010;
			503:10011111000000010;
			504:1000010101100110;
			505:10111101000010110;
			506:10110011011110110;
			507:10101101110100110;
			508:10110011011110000;
			509:10101101110100000;
			510:10100100010000000;
			511:10011110100110000;
			512:1110000110010000;
			513:1101011001000000;
			514:1100001100100000;
			515:1011011111010000;
			516:1100001100011010;
			517:1011011111001010;
			518:1010010010101010;
			519:1001100101011010;
			520:1110000010111110;
			521:1101010101101110;
			522:1100001001001110;
			523:1011011011111110;
			524:1100001001001000;
			525:1011011011111000;
			526:1010001111011000;
			527:1001100010001000;
			528:1011011110110000;
			529:1010110001100000;
			530:1001100101000000;
			531:1000110111110000;
			532:1001100100111010;
			533:1000110111101010;
			534:10111101011001010;
			535:10110111101111010;
			536:1011011011011110;
			537:1010101110001110;
			538:1001100001101110;
			539:1000110100011110;
			540:1001100001101000;
			541:1000110100011000;
			542:10111100111111000;
			543:10110111010101000;
			544:1101101011010000;
			545:1100111110000000;
			546:1011110001100000;
			547:1011000100010000;
			548:1011110001011010;
			549:1011000100001010;
			550:1001110111101010;
			551:1001001010011010;
			552:1101100111111110;
			553:1100111010101110;
			554:1011101110001110;
			555:1011000000111110;
			556:1011101110001000;
			557:1011000000111000;
			558:1001110100011000;
			559:1001000111001000;
			560:1011000011110000;
			561:1010010110100000;
			562:1001001010000000;
			563:1000011100110000;
			564:1001001001111010;
			565:1000011100101010;
			566:10111010000001010;
			567:10110100010111010;
			568:1011000000011110;
			569:1010010011001110;
			570:1001000110101110;
			571:1000011001011110;
			572:1001000110101000;
			573:1000011001011000;
			574:10111001100111000;
			575:10110011111101000;
			576:1011011110110000;
			577:1010110001100000;
			578:1001100101000000;
			579:1000110111110000;
			580:1001100100111010;
			581:1000110111101010;
			582:10111101011001010;
			583:10110111101111010;
			584:1011011011011110;
			585:1010101110001110;
			586:1001100001101110;
			587:1000110100011110;
			588:1001100001101000;
			589:1000110100011000;
			590:10111100111111000;
			591:10110111010101000;
			592:1000110111010000;
			593:1000001010000000;
			594:10110111101100000;
			595:10110010000010000;
			596:10110111101011010;
			597:10110010000001010;
			598:10101000011101010;
			599:10100010110011010;
			600:1000110011111110;
			601:1000000110101110;
			602:10110111010001110;
			603:10110001100111110;
			604:10110111010001000;
			605:10110001100111000;
			606:10101000000011000;
			607:10100010011001000;
			608:1011000011110000;
			609:1010010110100000;
			610:1001001010000000;
			611:1000011100110000;
			612:1001001001111010;
			613:1000011100101010;
			614:10111010000001010;
			615:10110100010111010;
			616:1011000000011110;
			617:1010010011001110;
			618:1001000110101110;
			619:1000011001011110;
			620:1001000110101000;
			621:1000011001011000;
			622:10111001100111000;
			623:10110011111101000;
			624:1000011100010000;
			625:10111101111000000;
			626:10110100010100000;
			627:10101110101010000;
			628:10110100010011010;
			629:10101110101001010;
			630:10100101000101010;
			631:10011111011011010;
			632:1000011000111110;
			633:10111101011101110;
			634:10110011111001110;
			635:10101110001111110;
			636:10110011111001000;
			637:10101110001111000;
			638:10100100101011000;
			639:10011111000001000;
			640:1110000010111110;
			641:1101010101101110;
			642:1100001001001110;
			643:1011011011111110;
			644:1100001001001000;
			645:1011011011111000;
			646:1010001111011000;
			647:1001100010001000;
			648:1101111111101100;
			649:1101010010011100;
			650:1100000101111100;
			651:1011011000101100;
			652:1100000101110110;
			653:1011011000100110;
			654:1010001100000110;
			655:1001011110110110;
			656:1011011011011110;
			657:1010101110001110;
			658:1001100001101110;
			659:1000110100011110;
			660:1001100001101000;
			661:1000110100011000;
			662:10111100111111000;
			663:10110111010101000;
			664:1011011000001100;
			665:1010101010111100;
			666:1001011110011100;
			667:1000110001001100;
			668:1001011110010110;
			669:1000110001000110;
			670:10111100100100110;
			671:10110110111010110;
			672:1101100111111110;
			673:1100111010101110;
			674:1011101110001110;
			675:1011000000111110;
			676:1011101110001000;
			677:1011000000111000;
			678:1001110100011000;
			679:1001000111001000;
			680:1101100100101100;
			681:1100110111011100;
			682:1011101010111100;
			683:1010111101101100;
			684:1011101010110110;
			685:1010111101100110;
			686:1001110001000110;
			687:1001000011110110;
			688:1011000000011110;
			689:1010010011001110;
			690:1001000110101110;
			691:1000011001011110;
			692:1001000110101000;
			693:1000011001011000;
			694:10111001100111000;
			695:10110011111101000;
			696:1010111101001100;
			697:1010001111111100;
			698:1001000011011100;
			699:1000010110001100;
			700:1001000011010110;
			701:1000010110000110;
			702:10111001001100110;
			703:10110011100010110;
			704:1011011011011110;
			705:1010101110001110;
			706:1001100001101110;
			707:1000110100011110;
			708:1001100001101000;
			709:1000110100011000;
			710:10111100111111000;
			711:10110111010101000;
			712:1011011000001100;
			713:1010101010111100;
			714:1001011110011100;
			715:1000110001001100;
			716:1001011110010110;
			717:1000110001000110;
			718:10111100100100110;
			719:10110110111010110;
			720:1000110011111110;
			721:1000000110101110;
			722:10110111010001110;
			723:10110001100111110;
			724:10110111010001000;
			725:10110001100111000;
			726:10101000000011000;
			727:10100010011001000;
			728:1000110000101100;
			729:1000000011011100;
			730:10110110110111100;
			731:10110001001101100;
			732:10110110110110110;
			733:10110001001100110;
			734:10100111101000110;
			735:10100001111110110;
			736:1011000000011110;
			737:1010010011001110;
			738:1001000110101110;
			739:1000011001011110;
			740:1001000110101000;
			741:1000011001011000;
			742:10111001100111000;
			743:10110011111101000;
			744:1010111101001100;
			745:1010001111111100;
			746:1001000011011100;
			747:1000010110001100;
			748:1001000011010110;
			749:1000010110000110;
			750:10111001001100110;
			751:10110011100010110;
			752:1000011000111110;
			753:10111101011101110;
			754:10110011111001110;
			755:10101110001111110;
			756:10110011111001000;
			757:10101110001111000;
			758:10100100101011000;
			759:10011111000001000;
			760:1000010101101100;
			761:10111101000011100;
			762:10110011011111100;
			763:10101101110101100;
			764:10110011011110110;
			765:10101101110100110;
			766:10100100010000110;
			767:10011110100110110;
			768:1100001100011010;
			769:1011011111001010;
			770:1010010010101010;
			771:1001100101011010;
			772:1010010010100100;
			773:1001100101010100;
			774:1000011000110100;
			775:10111101011100100;
			776:1100001001001000;
			777:1011011011111000;
			778:1010001111011000;
			779:1001100010001000;
			780:1010001111010010;
			781:1001100010000010;
			782:1000010101100010;
			783:10111101000010010;
			784:1001100100111010;
			785:1000110111101010;
			786:10111101011001010;
			787:10110111101111010;
			788:10111101011000100;
			789:10110111101110100;
			790:10101110001010100;
			791:10101000100000100;
			792:1001100001101000;
			793:1000110100011000;
			794:10111100111111000;
			795:10110111010101000;
			796:10111100111110010;
			797:10110111010100010;
			798:10101101110000010;
			799:10101000000110010;
			800:1011110001011010;
			801:1011000100001010;
			802:1001110111101010;
			803:1001001010011010;
			804:1001110111100100;
			805:1001001010010100;
			806:10111111101110100;
			807:10111010000100100;
			808:1011101110001000;
			809:1011000000111000;
			810:1001110100011000;
			811:1001000111001000;
			812:1001110100010010;
			813:1001000111000010;
			814:10111111010100010;
			815:10111001101010010;
			816:1001001001111010;
			817:1000011100101010;
			818:10111010000001010;
			819:10110100010111010;
			820:10111010000000100;
			821:10110100010110100;
			822:10101010110010100;
			823:10100101001000100;
			824:1001000110101000;
			825:1000011001011000;
			826:10111001100111000;
			827:10110011111101000;
			828:10111001100110010;
			829:10110011111100010;
			830:10101010011000010;
			831:10100100101110010;
			832:1001100100111010;
			833:1000110111101010;
			834:10111101011001010;
			835:10110111101111010;
			836:10111101011000100;
			837:10110111101110100;
			838:10101110001010100;
			839:10101000100000100;
			840:1001100001101000;
			841:1000110100011000;
			842:10111100111111000;
			843:10110111010101000;
			844:10111100111110010;
			845:10110111010100010;
			846:10101101110000010;
			847:10101000000110010;
			848:10110111101011010;
			849:10110010000001010;
			850:10101000011101010;
			851:10100010110011010;
			852:10101000011100100;
			853:10100010110010100;
			854:10011001001110100;
			855:10010011100100100;
			856:10110111010001000;
			857:10110001100111000;
			858:10101000000011000;
			859:10100010011001000;
			860:10101000000010010;
			861:10100010011000010;
			862:10011000110100010;
			863:10010011001010010;
			864:1001001001111010;
			865:1000011100101010;
			866:10111010000001010;
			867:10110100010111010;
			868:10111010000000100;
			869:10110100010110100;
			870:10101010110010100;
			871:10100101001000100;
			872:1001000110101000;
			873:1000011001011000;
			874:10111001100111000;
			875:10110011111101000;
			876:10111001100110010;
			877:10110011111100010;
			878:10101010011000010;
			879:10100100101110010;
			880:10110100010011010;
			881:10101110101001010;
			882:10100101000101010;
			883:10011111011011010;
			884:10100101000100100;
			885:10011111011010100;
			886:10010101110110100;
			887:10010000001100100;
			888:10110011111001000;
			889:10101110001111000;
			890:10100100101011000;
			891:10011111000001000;
			892:10100100101010010;
			893:10011111000000010;
			894:10010101011100010;
			895:10001111110010010;
			896:1100001001001000;
			897:1011011011111000;
			898:1010001111011000;
			899:1001100010001000;
			900:1010001111010010;
			901:1001100010000010;
			902:1000010101100010;
			903:10111101000010010;
			904:1100000101110110;
			905:1011011000100110;
			906:1010001100000110;
			907:1001011110110110;
			908:1010001100000000;
			909:1001011110110000;
			910:1000010010010000;
			911:10111100101000000;
			912:1001100001101000;
			913:1000110100011000;
			914:10111100111111000;
			915:10110111010101000;
			916:10111100111110010;
			917:10110111010100010;
			918:10101101110000010;
			919:10101000000110010;
			920:1001011110010110;
			921:1000110001000110;
			922:10111100100100110;
			923:10110110111010110;
			924:10111100100100000;
			925:10110110111010000;
			926:10101101010110000;
			927:10100111101100000;
			928:1011101110001000;
			929:1011000000111000;
			930:1001110100011000;
			931:1001000111001000;
			932:1001110100010010;
			933:1001000111000010;
			934:10111111010100010;
			935:10111001101010010;
			936:1011101010110110;
			937:1010111101100110;
			938:1001110001000110;
			939:1001000011110110;
			940:1001110001000000;
			941:1001000011110000;
			942:10111110111010000;
			943:10111001010000000;
			944:1001000110101000;
			945:1000011001011000;
			946:10111001100111000;
			947:10110011111101000;
			948:10111001100110010;
			949:10110011111100010;
			950:10101010011000010;
			951:10100100101110010;
			952:1001000011010110;
			953:1000010110000110;
			954:10111001001100110;
			955:10110011100010110;
			956:10111001001100000;
			957:10110011100010000;
			958:10101001111110000;
			959:10100100010100000;
			960:1001100001101000;
			961:1000110100011000;
			962:10111100111111000;
			963:10110111010101000;
			964:10111100111110010;
			965:10110111010100010;
			966:10101101110000010;
			967:10101000000110010;
			968:1001011110010110;
			969:1000110001000110;
			970:10111100100100110;
			971:10110110111010110;
			972:10111100100100000;
			973:10110110111010000;
			974:10101101010110000;
			975:10100111101100000;
			976:10110111010001000;
			977:10110001100111000;
			978:10101000000011000;
			979:10100010011001000;
			980:10101000000010010;
			981:10100010011000010;
			982:10011000110100010;
			983:10010011001010010;
			984:10110110110110110;
			985:10110001001100110;
			986:10100111101000110;
			987:10100001111110110;
			988:10100111101000000;
			989:10100001111110000;
			990:10011000011010000;
			991:10010010110000000;
			992:1001000110101000;
			993:1000011001011000;
			994:10111001100111000;
			995:10110011111101000;
			996:10111001100110010;
			997:10110011111100010;
			998:10101010011000010;
			999:10100100101110010;
			1000:1001000011010110;
			1001:1000010110000110;
			1002:10111001001100110;
			1003:10110011100010110;
			1004:10111001001100000;
			1005:10110011100010000;
			1006:10101001111110000;
			1007:10100100010100000;
			1008:10110011111001000;
			1009:10101110001111000;
			1010:10100100101011000;
			1011:10011111000001000;
			1012:10100100101010010;
			1013:10011111000000010;
			1014:10010101011100010;
			1015:10001111110010010;
			1016:10110011011110110;
			1017:10101101110100110;
			1018:10100100010000110;
			1019:10011110100110110;
			1020:10100100010000000;
			1021:10011110100110000;
			1022:10010101000010000;
			1023:10001111011000000;
			1024:1111010010110000;
			1025:1110100101100000;
			1026:1101011001000000;
			1027:1100101011110000;
			1028:1101011000111010;
			1029:1100101011101010;
			1030:1011011111001010;
			1031:1010110001111010;
			1032:1111001111011110;
			1033:1110100010001110;
			1034:1101010101101110;
			1035:1100101000011110;
			1036:1101010101101000;
			1037:1100101000011000;
			1038:1011011011111000;
			1039:1010101110101000;
			1040:1100101011010000;
			1041:1011111110000000;
			1042:1010110001100000;
			1043:1010000100010000;
			1044:1010110001011010;
			1045:1010000100001010;
			1046:1000110111101010;
			1047:1000001010011010;
			1048:1100100111111110;
			1049:1011111010101110;
			1050:1010101110001110;
			1051:1010000000111110;
			1052:1010101110001000;
			1053:1010000000111000;
			1054:1000110100011000;
			1055:1000000111001000;
			1056:1110110111110000;
			1057:1110001010100000;
			1058:1100111110000000;
			1059:1100010000110000;
			1060:1100111101111010;
			1061:1100010000101010;
			1062:1011000100001010;
			1063:1010010110111010;
			1064:1110110100011110;
			1065:1110000111001110;
			1066:1100111010101110;
			1067:1100001101011110;
			1068:1100111010101000;
			1069:1100001101011000;
			1070:1011000000111000;
			1071:1010010011101000;
			1072:1100010000010000;
			1073:1011100011000000;
			1074:1010010110100000;
			1075:1001101001010000;
			1076:1010010110011010;
			1077:1001101001001010;
			1078:1000011100101010;
			1079:10111101111011010;
			1080:1100001100111110;
			1081:1011011111101110;
			1082:1010010011001110;
			1083:1001100101111110;
			1084:1010010011001000;
			1085:1001100101111000;
			1086:1000011001011000;
			1087:10111101100001000;
			1088:1100101011010000;
			1089:1011111110000000;
			1090:1010110001100000;
			1091:1010000100010000;
			1092:1010110001011010;
			1093:1010000100001010;
			1094:1000110111101010;
			1095:1000001010011010;
			1096:1100100111111110;
			1097:1011111010101110;
			1098:1010101110001110;
			1099:1010000000111110;
			1100:1010101110001000;
			1101:1010000000111000;
			1102:1000110100011000;
			1103:1000000111001000;
			1104:1010000011110000;
			1105:1001010110100000;
			1106:1000001010000000;
			1107:10111011100110000;
			1108:1000001001111010;
			1109:10111011100101010;
			1110:10110010000001010;
			1111:10101100010111010;
			1112:1010000000011110;
			1113:1001010011001110;
			1114:1000000110101110;
			1115:10111011001011110;
			1116:1000000110101000;
			1117:10111011001011000;
			1118:10110001100111000;
			1119:10101011111101000;
			1120:1100010000010000;
			1121:1011100011000000;
			1122:1010010110100000;
			1123:1001101001010000;
			1124:1010010110011010;
			1125:1001101001001010;
			1126:1000011100101010;
			1127:10111101111011010;
			1128:1100001100111110;
			1129:1011011111101110;
			1130:1010010011001110;
			1131:1001100101111110;
			1132:1010010011001000;
			1133:1001100101111000;
			1134:1000011001011000;
			1135:10111101100001000;
			1136:1001101000110000;
			1137:1000111011100000;
			1138:10111101111000000;
			1139:10111000001110000;
			1140:10111101110111010;
			1141:10111000001101010;
			1142:10101110101001010;
			1143:10101000111111010;
			1144:1001100101011110;
			1145:1000111000001110;
			1146:10111101011101110;
			1147:10110111110011110;
			1148:10111101011101000;
			1149:10110111110011000;
			1150:10101110001111000;
			1151:10101000100101000;
			1152:1111001111011110;
			1153:1110100010001110;
			1154:1101010101101110;
			1155:1100101000011110;
			1156:1101010101101000;
			1157:1100101000011000;
			1158:1011011011111000;
			1159:1010101110101000;
			1160:1111001100001100;
			1161:1110011110111100;
			1162:1101010010011100;
			1163:1100100101001100;
			1164:1101010010010110;
			1165:1100100101000110;
			1166:1011011000100110;
			1167:1010101011010110;
			1168:1100100111111110;
			1169:1011111010101110;
			1170:1010101110001110;
			1171:1010000000111110;
			1172:1010101110001000;
			1173:1010000000111000;
			1174:1000110100011000;
			1175:1000000111001000;
			1176:1100100100101100;
			1177:1011110111011100;
			1178:1010101010111100;
			1179:1001111101101100;
			1180:1010101010110110;
			1181:1001111101100110;
			1182:1000110001000110;
			1183:1000000011110110;
			1184:1110110100011110;
			1185:1110000111001110;
			1186:1100111010101110;
			1187:1100001101011110;
			1188:1100111010101000;
			1189:1100001101011000;
			1190:1011000000111000;
			1191:1010010011101000;
			1192:1110110001001100;
			1193:1110000011111100;
			1194:1100110111011100;
			1195:1100001010001100;
			1196:1100110111010110;
			1197:1100001010000110;
			1198:1010111101100110;
			1199:1010010000010110;
			1200:1100001100111110;
			1201:1011011111101110;
			1202:1010010011001110;
			1203:1001100101111110;
			1204:1010010011001000;
			1205:1001100101111000;
			1206:1000011001011000;
			1207:10111101100001000;
			1208:1100001001101100;
			1209:1011011100011100;
			1210:1010001111111100;
			1211:1001100010101100;
			1212:1010001111110110;
			1213:1001100010100110;
			1214:1000010110000110;
			1215:10111101000110110;
			1216:1100100111111110;
			1217:1011111010101110;
			1218:1010101110001110;
			1219:1010000000111110;
			1220:1010101110001000;
			1221:1010000000111000;
			1222:1000110100011000;
			1223:1000000111001000;
			1224:1100100100101100;
			1225:1011110111011100;
			1226:1010101010111100;
			1227:1001111101101100;
			1228:1010101010110110;
			1229:1001111101100110;
			1230:1000110001000110;
			1231:1000000011110110;
			1232:1010000000011110;
			1233:1001010011001110;
			1234:1000000110101110;
			1235:10111011001011110;
			1236:1000000110101000;
			1237:10111011001011000;
			1238:10110001100111000;
			1239:10101011111101000;
			1240:1001111101001100;
			1241:1001001111111100;
			1242:1000000011011100;
			1243:10111010110001100;
			1244:1000000011010110;
			1245:10111010110000110;
			1246:10110001001100110;
			1247:10101011100010110;
			1248:1100001100111110;
			1249:1011011111101110;
			1250:1010010011001110;
			1251:1001100101111110;
			1252:1010010011001000;
			1253:1001100101111000;
			1254:1000011001011000;
			1255:10111101100001000;
			1256:1100001001101100;
			1257:1011011100011100;
			1258:1010001111111100;
			1259:1001100010101100;
			1260:1010001111110110;
			1261:1001100010100110;
			1262:1000010110000110;
			1263:10111101000110110;
			1264:1001100101011110;
			1265:1000111000001110;
			1266:10111101011101110;
			1267:10110111110011110;
			1268:10111101011101000;
			1269:10110111110011000;
			1270:10101110001111000;
			1271:10101000100101000;
			1272:1001100010001100;
			1273:1000110100111100;
			1274:10111101000011100;
			1275:10110111011001100;
			1276:10111101000010110;
			1277:10110111011000110;
			1278:10101101110100110;
			1279:10101000001010110;
			1280:1101011000111010;
			1281:1100101011101010;
			1282:1011011111001010;
			1283:1010110001111010;
			1284:1011011111000100;
			1285:1010110001110100;
			1286:1001100101010100;
			1287:1000111000000100;
			1288:1101010101101000;
			1289:1100101000011000;
			1290:1011011011111000;
			1291:1010101110101000;
			1292:1011011011110010;
			1293:1010101110100010;
			1294:1001100010000010;
			1295:1000110100110010;
			1296:1010110001011010;
			1297:1010000100001010;
			1298:1000110111101010;
			1299:1000001010011010;
			1300:1000110111100100;
			1301:1000001010010100;
			1302:10110111101110100;
			1303:10110010000100100;
			1304:1010101110001000;
			1305:1010000000111000;
			1306:1000110100011000;
			1307:1000000111001000;
			1308:1000110100010010;
			1309:1000000111000010;
			1310:10110111010100010;
			1311:10110001101010010;
			1312:1100111101111010;
			1313:1100010000101010;
			1314:1011000100001010;
			1315:1010010110111010;
			1316:1011000100000100;
			1317:1010010110110100;
			1318:1001001010010100;
			1319:1000011101000100;
			1320:1100111010101000;
			1321:1100001101011000;
			1322:1011000000111000;
			1323:1010010011101000;
			1324:1011000000110010;
			1325:1010010011100010;
			1326:1001000111000010;
			1327:1000011001110010;
			1328:1010010110011010;
			1329:1001101001001010;
			1330:1000011100101010;
			1331:10111101111011010;
			1332:1000011100100100;
			1333:10111101111010100;
			1334:10110100010110100;
			1335:10101110101100100;
			1336:1010010011001000;
			1337:1001100101111000;
			1338:1000011001011000;
			1339:10111101100001000;
			1340:1000011001010010;
			1341:10111101100000010;
			1342:10110011111100010;
			1343:10101110010010010;
			1344:1010110001011010;
			1345:1010000100001010;
			1346:1000110111101010;
			1347:1000001010011010;
			1348:1000110111100100;
			1349:1000001010010100;
			1350:10110111101110100;
			1351:10110010000100100;
			1352:1010101110001000;
			1353:1010000000111000;
			1354:1000110100011000;
			1355:1000000111001000;
			1356:1000110100010010;
			1357:1000000111000010;
			1358:10110111010100010;
			1359:10110001101010010;
			1360:1000001001111010;
			1361:10111011100101010;
			1362:10110010000001010;
			1363:10101100010111010;
			1364:10110010000000100;
			1365:10101100010110100;
			1366:10100010110010100;
			1367:10011101001000100;
			1368:1000000110101000;
			1369:10111011001011000;
			1370:10110001100111000;
			1371:10101011111101000;
			1372:10110001100110010;
			1373:10101011111100010;
			1374:10100010011000010;
			1375:10011100101110010;
			1376:1010010110011010;
			1377:1001101001001010;
			1378:1000011100101010;
			1379:10111101111011010;
			1380:1000011100100100;
			1381:10111101111010100;
			1382:10110100010110100;
			1383:10101110101100100;
			1384:1010010011001000;
			1385:1001100101111000;
			1386:1000011001011000;
			1387:10111101100001000;
			1388:1000011001010010;
			1389:10111101100000010;
			1390:10110011111100010;
			1391:10101110010010010;
			1392:10111101110111010;
			1393:10111000001101010;
			1394:10101110101001010;
			1395:10101000111111010;
			1396:10101110101000100;
			1397:10101000111110100;
			1398:10011111011010100;
			1399:10011001110000100;
			1400:10111101011101000;
			1401:10110111110011000;
			1402:10101110001111000;
			1403:10101000100101000;
			1404:10101110001110010;
			1405:10101000100100010;
			1406:10011111000000010;
			1407:10011001010110010;
			1408:1101010101101000;
			1409:1100101000011000;
			1410:1011011011111000;
			1411:1010101110101000;
			1412:1011011011110010;
			1413:1010101110100010;
			1414:1001100010000010;
			1415:1000110100110010;
			1416:1101010010010110;
			1417:1100100101000110;
			1418:1011011000100110;
			1419:1010101011010110;
			1420:1011011000100000;
			1421:1010101011010000;
			1422:1001011110110000;
			1423:1000110001100000;
			1424:1010101110001000;
			1425:1010000000111000;
			1426:1000110100011000;
			1427:1000000111001000;
			1428:1000110100010010;
			1429:1000000111000010;
			1430:10110111010100010;
			1431:10110001101010010;
			1432:1010101010110110;
			1433:1001111101100110;
			1434:1000110001000110;
			1435:1000000011110110;
			1436:1000110001000000;
			1437:1000000011110000;
			1438:10110110111010000;
			1439:10110001010000000;
			1440:1100111010101000;
			1441:1100001101011000;
			1442:1011000000111000;
			1443:1010010011101000;
			1444:1011000000110010;
			1445:1010010011100010;
			1446:1001000111000010;
			1447:1000011001110010;
			1448:1100110111010110;
			1449:1100001010000110;
			1450:1010111101100110;
			1451:1010010000010110;
			1452:1010111101100000;
			1453:1010010000010000;
			1454:1001000011110000;
			1455:1000010110100000;
			1456:1010010011001000;
			1457:1001100101111000;
			1458:1000011001011000;
			1459:10111101100001000;
			1460:1000011001010010;
			1461:10111101100000010;
			1462:10110011111100010;
			1463:10101110010010010;
			1464:1010001111110110;
			1465:1001100010100110;
			1466:1000010110000110;
			1467:10111101000110110;
			1468:1000010110000000;
			1469:10111101000110000;
			1470:10110011100010000;
			1471:10101101111000000;
			1472:1010101110001000;
			1473:1010000000111000;
			1474:1000110100011000;
			1475:1000000111001000;
			1476:1000110100010010;
			1477:1000000111000010;
			1478:10110111010100010;
			1479:10110001101010010;
			1480:1010101010110110;
			1481:1001111101100110;
			1482:1000110001000110;
			1483:1000000011110110;
			1484:1000110001000000;
			1485:1000000011110000;
			1486:10110110111010000;
			1487:10110001010000000;
			1488:1000000110101000;
			1489:10111011001011000;
			1490:10110001100111000;
			1491:10101011111101000;
			1492:10110001100110010;
			1493:10101011111100010;
			1494:10100010011000010;
			1495:10011100101110010;
			1496:1000000011010110;
			1497:10111010110000110;
			1498:10110001001100110;
			1499:10101011100010110;
			1500:10110001001100000;
			1501:10101011100010000;
			1502:10100001111110000;
			1503:10011100010100000;
			1504:1010010011001000;
			1505:1001100101111000;
			1506:1000011001011000;
			1507:10111101100001000;
			1508:1000011001010010;
			1509:10111101100000010;
			1510:10110011111100010;
			1511:10101110010010010;
			1512:1010001111110110;
			1513:1001100010100110;
			1514:1000010110000110;
			1515:10111101000110110;
			1516:1000010110000000;
			1517:10111101000110000;
			1518:10110011100010000;
			1519:10101101111000000;
			1520:10111101011101000;
			1521:10110111110011000;
			1522:10101110001111000;
			1523:10101000100101000;
			1524:10101110001110010;
			1525:10101000100100010;
			1526:10011111000000010;
			1527:10011001010110010;
			1528:10111101000010110;
			1529:10110111011000110;
			1530:10101101110100110;
			1531:10101000001010110;
			1532:10101101110100000;
			1533:10101000001010000;
			1534:10011110100110000;
			1535:10011000111100000;
			1536:1101011001000000;
			1537:1100101011110000;
			1538:1011011111010000;
			1539:1010110010000000;
			1540:1011011111001010;
			1541:1010110001111010;
			1542:1001100101011010;
			1543:1000111000001010;
			1544:1101010101101110;
			1545:1100101000011110;
			1546:1011011011111110;
			1547:1010101110101110;
			1548:1011011011111000;
			1549:1010101110101000;
			1550:1001100010001000;
			1551:1000110100111000;
			1552:1010110001100000;
			1553:1010000100010000;
			1554:1000110111110000;
			1555:1000001010100000;
			1556:1000110111101010;
			1557:1000001010011010;
			1558:10110111101111010;
			1559:10110010000101010;
			1560:1010101110001110;
			1561:1010000000111110;
			1562:1000110100011110;
			1563:1000000111001110;
			1564:1000110100011000;
			1565:1000000111001000;
			1566:10110111010101000;
			1567:10110001101011000;
			1568:1100111110000000;
			1569:1100010000110000;
			1570:1011000100010000;
			1571:1010010111000000;
			1572:1011000100001010;
			1573:1010010110111010;
			1574:1001001010011010;
			1575:1000011101001010;
			1576:1100111010101110;
			1577:1100001101011110;
			1578:1011000000111110;
			1579:1010010011101110;
			1580:1011000000111000;
			1581:1010010011101000;
			1582:1001000111001000;
			1583:1000011001111000;
			1584:1010010110100000;
			1585:1001101001010000;
			1586:1000011100110000;
			1587:10111101111100000;
			1588:1000011100101010;
			1589:10111101111011010;
			1590:10110100010111010;
			1591:10101110101101010;
			1592:1010010011001110;
			1593:1001100101111110;
			1594:1000011001011110;
			1595:10111101100001110;
			1596:1000011001011000;
			1597:10111101100001000;
			1598:10110011111101000;
			1599:10101110010011000;
			1600:1010110001100000;
			1601:1010000100010000;
			1602:1000110111110000;
			1603:1000001010100000;
			1604:1000110111101010;
			1605:1000001010011010;
			1606:10110111101111010;
			1607:10110010000101010;
			1608:1010101110001110;
			1609:1010000000111110;
			1610:1000110100011110;
			1611:1000000111001110;
			1612:1000110100011000;
			1613:1000000111001000;
			1614:10110111010101000;
			1615:10110001101011000;
			1616:1000001010000000;
			1617:10111011100110000;
			1618:10110010000010000;
			1619:10101100011000000;
			1620:10110010000001010;
			1621:10101100010111010;
			1622:10100010110011010;
			1623:10011101001001010;
			1624:1000000110101110;
			1625:10111011001011110;
			1626:10110001100111110;
			1627:10101011111101110;
			1628:10110001100111000;
			1629:10101011111101000;
			1630:10100010011001000;
			1631:10011100101111000;
			1632:1010010110100000;
			1633:1001101001010000;
			1634:1000011100110000;
			1635:10111101111100000;
			1636:1000011100101010;
			1637:10111101111011010;
			1638:10110100010111010;
			1639:10101110101101010;
			1640:1010010011001110;
			1641:1001100101111110;
			1642:1000011001011110;
			1643:10111101100001110;
			1644:1000011001011000;
			1645:10111101100001000;
			1646:10110011111101000;
			1647:10101110010011000;
			1648:10111101111000000;
			1649:10111000001110000;
			1650:10101110101010000;
			1651:10101001000000000;
			1652:10101110101001010;
			1653:10101000111111010;
			1654:10011111011011010;
			1655:10011001110001010;
			1656:10111101011101110;
			1657:10110111110011110;
			1658:10101110001111110;
			1659:10101000100101110;
			1660:10101110001111000;
			1661:10101000100101000;
			1662:10011111000001000;
			1663:10011001010111000;
			1664:1101010101101110;
			1665:1100101000011110;
			1666:1011011011111110;
			1667:1010101110101110;
			1668:1011011011111000;
			1669:1010101110101000;
			1670:1001100010001000;
			1671:1000110100111000;
			1672:1101010010011100;
			1673:1100100101001100;
			1674:1011011000101100;
			1675:1010101011011100;
			1676:1011011000100110;
			1677:1010101011010110;
			1678:1001011110110110;
			1679:1000110001100110;
			1680:1010101110001110;
			1681:1010000000111110;
			1682:1000110100011110;
			1683:1000000111001110;
			1684:1000110100011000;
			1685:1000000111001000;
			1686:10110111010101000;
			1687:10110001101011000;
			1688:1010101010111100;
			1689:1001111101101100;
			1690:1000110001001100;
			1691:1000000011111100;
			1692:1000110001000110;
			1693:1000000011110110;
			1694:10110110111010110;
			1695:10110001010000110;
			1696:1100111010101110;
			1697:1100001101011110;
			1698:1011000000111110;
			1699:1010010011101110;
			1700:1011000000111000;
			1701:1010010011101000;
			1702:1001000111001000;
			1703:1000011001111000;
			1704:1100110111011100;
			1705:1100001010001100;
			1706:1010111101101100;
			1707:1010010000011100;
			1708:1010111101100110;
			1709:1010010000010110;
			1710:1001000011110110;
			1711:1000010110100110;
			1712:1010010011001110;
			1713:1001100101111110;
			1714:1000011001011110;
			1715:10111101100001110;
			1716:1000011001011000;
			1717:10111101100001000;
			1718:10110011111101000;
			1719:10101110010011000;
			1720:1010001111111100;
			1721:1001100010101100;
			1722:1000010110001100;
			1723:10111101000111100;
			1724:1000010110000110;
			1725:10111101000110110;
			1726:10110011100010110;
			1727:10101101111000110;
			1728:1010101110001110;
			1729:1010000000111110;
			1730:1000110100011110;
			1731:1000000111001110;
			1732:1000110100011000;
			1733:1000000111001000;
			1734:10110111010101000;
			1735:10110001101011000;
			1736:1010101010111100;
			1737:1001111101101100;
			1738:1000110001001100;
			1739:1000000011111100;
			1740:1000110001000110;
			1741:1000000011110110;
			1742:10110110111010110;
			1743:10110001010000110;
			1744:1000000110101110;
			1745:10111011001011110;
			1746:10110001100111110;
			1747:10101011111101110;
			1748:10110001100111000;
			1749:10101011111101000;
			1750:10100010011001000;
			1751:10011100101111000;
			1752:1000000011011100;
			1753:10111010110001100;
			1754:10110001001101100;
			1755:10101011100011100;
			1756:10110001001100110;
			1757:10101011100010110;
			1758:10100001111110110;
			1759:10011100010100110;
			1760:1010010011001110;
			1761:1001100101111110;
			1762:1000011001011110;
			1763:10111101100001110;
			1764:1000011001011000;
			1765:10111101100001000;
			1766:10110011111101000;
			1767:10101110010011000;
			1768:1010001111111100;
			1769:1001100010101100;
			1770:1000010110001100;
			1771:10111101000111100;
			1772:1000010110000110;
			1773:10111101000110110;
			1774:10110011100010110;
			1775:10101101111000110;
			1776:10111101011101110;
			1777:10110111110011110;
			1778:10101110001111110;
			1779:10101000100101110;
			1780:10101110001111000;
			1781:10101000100101000;
			1782:10011111000001000;
			1783:10011001010111000;
			1784:10111101000011100;
			1785:10110111011001100;
			1786:10101101110101100;
			1787:10101000001011100;
			1788:10101101110100110;
			1789:10101000001010110;
			1790:10011110100110110;
			1791:10011000111100110;
			1792:1011011111001010;
			1793:1010110001111010;
			1794:1001100101011010;
			1795:1000111000001010;
			1796:1001100101010100;
			1797:1000111000000100;
			1798:10111101011100100;
			1799:10110111110010100;
			1800:1011011011111000;
			1801:1010101110101000;
			1802:1001100010001000;
			1803:1000110100111000;
			1804:1001100010000010;
			1805:1000110100110010;
			1806:10111101000010010;
			1807:10110111011000010;
			1808:1000110111101010;
			1809:1000001010011010;
			1810:10110111101111010;
			1811:10110010000101010;
			1812:10110111101110100;
			1813:10110010000100100;
			1814:10101000100000100;
			1815:10100010110110100;
			1816:1000110100011000;
			1817:1000000111001000;
			1818:10110111010101000;
			1819:10110001101011000;
			1820:10110111010100010;
			1821:10110001101010010;
			1822:10101000000110010;
			1823:10100010011100010;
			1824:1011000100001010;
			1825:1010010110111010;
			1826:1001001010011010;
			1827:1000011101001010;
			1828:1001001010010100;
			1829:1000011101000100;
			1830:10111010000100100;
			1831:10110100011010100;
			1832:1011000000111000;
			1833:1010010011101000;
			1834:1001000111001000;
			1835:1000011001111000;
			1836:1001000111000010;
			1837:1000011001110010;
			1838:10111001101010010;
			1839:10110100000000010;
			1840:1000011100101010;
			1841:10111101111011010;
			1842:10110100010111010;
			1843:10101110101101010;
			1844:10110100010110100;
			1845:10101110101100100;
			1846:10100101001000100;
			1847:10011111011110100;
			1848:1000011001011000;
			1849:10111101100001000;
			1850:10110011111101000;
			1851:10101110010011000;
			1852:10110011111100010;
			1853:10101110010010010;
			1854:10100100101110010;
			1855:10011111000100010;
			1856:1000110111101010;
			1857:1000001010011010;
			1858:10110111101111010;
			1859:10110010000101010;
			1860:10110111101110100;
			1861:10110010000100100;
			1862:10101000100000100;
			1863:10100010110110100;
			1864:1000110100011000;
			1865:1000000111001000;
			1866:10110111010101000;
			1867:10110001101011000;
			1868:10110111010100010;
			1869:10110001101010010;
			1870:10101000000110010;
			1871:10100010011100010;
			1872:10110010000001010;
			1873:10101100010111010;
			1874:10100010110011010;
			1875:10011101001001010;
			1876:10100010110010100;
			1877:10011101001000100;
			1878:10010011100100100;
			1879:10001101111010100;
			1880:10110001100111000;
			1881:10101011111101000;
			1882:10100010011001000;
			1883:10011100101111000;
			1884:10100010011000010;
			1885:10011100101110010;
			1886:10010011001010010;
			1887:10001101100000010;
			1888:1000011100101010;
			1889:10111101111011010;
			1890:10110100010111010;
			1891:10101110101101010;
			1892:10110100010110100;
			1893:10101110101100100;
			1894:10100101001000100;
			1895:10011111011110100;
			1896:1000011001011000;
			1897:10111101100001000;
			1898:10110011111101000;
			1899:10101110010011000;
			1900:10110011111100010;
			1901:10101110010010010;
			1902:10100100101110010;
			1903:10011111000100010;
			1904:10101110101001010;
			1905:10101000111111010;
			1906:10011111011011010;
			1907:10011001110001010;
			1908:10011111011010100;
			1909:10011001110000100;
			1910:10010000001100100;
			1911:10001010100010100;
			1912:10101110001111000;
			1913:10101000100101000;
			1914:10011111000001000;
			1915:10011001010111000;
			1916:10011111000000010;
			1917:10011001010110010;
			1918:10001111110010010;
			1919:10001010001000010;
			1920:1011011011111000;
			1921:1010101110101000;
			1922:1001100010001000;
			1923:1000110100111000;
			1924:1001100010000010;
			1925:1000110100110010;
			1926:10111101000010010;
			1927:10110111011000010;
			1928:1011011000100110;
			1929:1010101011010110;
			1930:1001011110110110;
			1931:1000110001100110;
			1932:1001011110110000;
			1933:1000110001100000;
			1934:10111100101000000;
			1935:10110110111110000;
			1936:1000110100011000;
			1937:1000000111001000;
			1938:10110111010101000;
			1939:10110001101011000;
			1940:10110111010100010;
			1941:10110001101010010;
			1942:10101000000110010;
			1943:10100010011100010;
			1944:1000110001000110;
			1945:1000000011110110;
			1946:10110110111010110;
			1947:10110001010000110;
			1948:10110110111010000;
			1949:10110001010000000;
			1950:10100111101100000;
			1951:10100010000010000;
			1952:1011000000111000;
			1953:1010010011101000;
			1954:1001000111001000;
			1955:1000011001111000;
			1956:1001000111000010;
			1957:1000011001110010;
			1958:10111001101010010;
			1959:10110100000000010;
			1960:1010111101100110;
			1961:1010010000010110;
			1962:1001000011110110;
			1963:1000010110100110;
			1964:1001000011110000;
			1965:1000010110100000;
			1966:10111001010000000;
			1967:10110011100110000;
			1968:1000011001011000;
			1969:10111101100001000;
			1970:10110011111101000;
			1971:10101110010011000;
			1972:10110011111100010;
			1973:10101110010010010;
			1974:10100100101110010;
			1975:10011111000100010;
			1976:1000010110000110;
			1977:10111101000110110;
			1978:10110011100010110;
			1979:10101101111000110;
			1980:10110011100010000;
			1981:10101101111000000;
			1982:10100100010100000;
			1983:10011110101010000;
			1984:1000110100011000;
			1985:1000000111001000;
			1986:10110111010101000;
			1987:10110001101011000;
			1988:10110111010100010;
			1989:10110001101010010;
			1990:10101000000110010;
			1991:10100010011100010;
			1992:1000110001000110;
			1993:1000000011110110;
			1994:10110110111010110;
			1995:10110001010000110;
			1996:10110110111010000;
			1997:10110001010000000;
			1998:10100111101100000;
			1999:10100010000010000;
			2000:10110001100111000;
			2001:10101011111101000;
			2002:10100010011001000;
			2003:10011100101111000;
			2004:10100010011000010;
			2005:10011100101110010;
			2006:10010011001010010;
			2007:10001101100000010;
			2008:10110001001100110;
			2009:10101011100010110;
			2010:10100001111110110;
			2011:10011100010100110;
			2012:10100001111110000;
			2013:10011100010100000;
			2014:10010010110000000;
			2015:10001101000110000;
			2016:1000011001011000;
			2017:10111101100001000;
			2018:10110011111101000;
			2019:10101110010011000;
			2020:10110011111100010;
			2021:10101110010010010;
			2022:10100100101110010;
			2023:10011111000100010;
			2024:1000010110000110;
			2025:10111101000110110;
			2026:10110011100010110;
			2027:10101101111000110;
			2028:10110011100010000;
			2029:10101101111000000;
			2030:10100100010100000;
			2031:10011110101010000;
			2032:10101110001111000;
			2033:10101000100101000;
			2034:10011111000001000;
			2035:10011001010111000;
			2036:10011111000000010;
			2037:10011001010110010;
			2038:10001111110010010;
			2039:10001010001000010;
			2040:10101101110100110;
			2041:10101000001010110;
			2042:10011110100110110;
			2043:10011000111100110;
			2044:10011110100110000;
			2045:10011000111100000;
			2046:10001111011000000;
			2047:10001001101110000;
END;