<?xml version="1.0" encoding="UTF-8" standalone="no"?>
<!DOCTYPE svg PUBLIC "-//W3C//DTD SVG 1.1//EN" "http://www.w3.org/Graphics/SVG/1.1/DTD/svg11.dtd">
<!-- 由 Microsoft Visio, SVG Export 生成 10.svg 页-1 -->
<svg xmlns="http://www.w3.org/2000/svg" xmlns:xlink="http://www.w3.org/1999/xlink" xmlns:ev="http://www.w3.org/2001/xml-events"
		xmlns:v="http://schemas.microsoft.com/visio/2003/SVGExtensions/" width="5.63066in" height="2.75123in"
		viewBox="0 0 405.407 198.089" xml:space="preserve" color-interpolation-filters="sRGB" class="st12">
	<v:documentProperties v:langID="2052" v:metric="true" v:viewMarkup="false"/>

	<style type="text/css">
	<![CDATA[
		.st1 {visibility:visible}
		.st2 {fill:none;filter:url(#filter_2);stroke:#5b9bd5;stroke-opacity:0.22}
		.st3 {fill:#5b9bd5;filter:url(#filter_2);font-family:黑体;font-size:0.833336em;opacity:0.219608}
		.st4 {font-family:Times New Roman;font-size:1em}
		.st5 {fill:none;stroke:#000000;stroke-width:0.25}
		.st6 {fill:#000000;font-family:黑体;font-size:0.833336em}
		.st7 {fill:#5b9bd5;filter:url(#filter_2);font-family:Times New Roman;font-size:0.833336em;opacity:0.219608}
		.st8 {font-family:黑体;font-size:1em}
		.st9 {fill:#000000;font-family:Times New Roman;font-size:0.833336em}
		.st10 {marker-end:url(#mrkr13-36);stroke:#000000;stroke-linecap:round;stroke-linejoin:round;stroke-width:1}
		.st11 {fill:#000000;fill-opacity:1;stroke:#000000;stroke-opacity:1;stroke-width:0.28409090909091}
		.st12 {fill:none;fill-rule:evenodd;font-size:12px;overflow:visible;stroke-linecap:square;stroke-miterlimit:3}
	]]>
	</style>

	<defs id="Markers">
		<g id="lend13">
			<path d="M 3 1 L 0 0 L 3 -1 L 3 1 " style="stroke:none"/>
		</g>
		<marker id="mrkr13-36" class="st11" v:arrowType="13" v:arrowSize="2" v:setback="10.56" refX="-10.56" orient="auto"
				markerUnits="strokeWidth" overflow="visible">
			<use xlink:href="#lend13" transform="scale(-3.52,-3.52) "/>
		</marker>
	</defs>
	<defs id="Filters">
		<filter id="filter_2">
			<feGaussianBlur stdDeviation="2"/>
		</filter>
	</defs>
	<g v:mID="0" v:index="1" v:groupContext="foregroundPage">
		<title>页-1</title>
		<v:pageProperties v:drawingScale="0.0393701" v:pageScale="0.0393701" v:drawingUnits="24" v:shadowOffsetX="8.50394"
				v:shadowOffsetY="-8.50394"/>
		<g id="shape19-1" v:mID="19" v:groupContext="shape" transform="translate(3.02941,-62.0407)">
			<title>矩形.19</title>
			<desc>以太网MAC数据包</desc>
			<v:userDefs>
				<v:ud v:nameU="visVersion" v:val="VT0(15):26"/>
			</v:userDefs>
			<v:textBlock v:margins="rect(4,4,4,4)" v:tabSpace="42.5197"/>
			<v:textRect cx="51.4134" cy="168.25" width="102.83" height="59.6768"/>
			<g id="shadow19-2" v:groupContext="shadow" v:shadowOffsetX="0.345598" v:shadowOffsetY="-1.97279" v:shadowType="1"
					transform="matrix(1,0,0,1,0.345598,1.97279)" class="st1">
				<rect x="0" y="138.412" width="102.827" height="59.6768" class="st2"/>
				<text x="10.02" y="171.54" class="st3" v:langID="2052"><v:paragraph v:horizAlign="1"/><v:tabList/>以太网<tspan
							class="st4">MAC</tspan>数据包</text>			</g>
			<rect x="0" y="138.412" width="102.827" height="59.6768" class="st5"/>
			<text x="10.02" y="171.54" class="st6" v:langID="2052"><v:paragraph v:horizAlign="1"/><v:tabList/>以太网<tspan class="st4">MAC</tspan>数据包</text>		</g>
		<g id="shape20-11" v:mID="20" v:groupContext="shape" transform="translate(158.935,-118.734)">
			<title>矩形.20</title>
			<desc>IP层数据包</desc>
			<v:userDefs>
				<v:ud v:nameU="visVersion" v:val="VT0(15):26"/>
			</v:userDefs>
			<v:textBlock v:margins="rect(4,4,4,4)" v:tabSpace="42.5197"/>
			<v:textRect cx="51.4134" cy="168.25" width="102.83" height="59.6768"/>
			<g id="shadow20-12" v:groupContext="shadow" v:shadowOffsetX="0.345598" v:shadowOffsetY="-1.97279" v:shadowType="1"
					transform="matrix(1,0,0,1,0.345598,1.97279)" class="st1">
				<rect x="0" y="138.412" width="102.827" height="59.6768" class="st2"/>
				<text x="26.97" y="171.54" class="st7" v:langID="2052"><v:paragraph v:horizAlign="1"/><v:tabList/>IP<tspan
							class="st8">层数据包</tspan></text>			</g>
			<rect x="0" y="138.412" width="102.827" height="59.6768" class="st5"/>
			<text x="26.97" y="171.54" class="st9" v:langID="2052"><v:paragraph v:horizAlign="1"/><v:tabList/>IP<tspan class="st8">层数据包</tspan></text>		</g>
		<g id="shape21-21" v:mID="21" v:groupContext="shape" transform="translate(158.935,-5.3478)">
			<title>矩形.21</title>
			<desc>ARP包</desc>
			<v:userDefs>
				<v:ud v:nameU="visVersion" v:val="VT0(15):26"/>
			</v:userDefs>
			<v:textBlock v:margins="rect(4,4,4,4)" v:tabSpace="42.5197"/>
			<v:textRect cx="51.4134" cy="168.25" width="102.83" height="59.6768"/>
			<g id="shadow21-22" v:groupContext="shadow" v:shadowOffsetX="0.345598" v:shadowOffsetY="-1.97279" v:shadowType="1"
					transform="matrix(1,0,0,1,0.345598,1.97279)" class="st1">
				<rect x="0" y="138.412" width="102.827" height="59.6768" class="st2"/>
				<text x="36.69" y="171.54" class="st7" v:langID="2052"><v:paragraph v:horizAlign="1"/><v:tabList/>ARP<tspan
							class="st8">包</tspan></text>			</g>
			<rect x="0" y="138.412" width="102.827" height="59.6768" class="st5"/>
			<text x="36.69" y="171.54" class="st9" v:langID="2052"><v:paragraph v:horizAlign="1"/><v:tabList/>ARP<tspan class="st8">包</tspan></text>		</g>
		<g id="shape23-31" v:mID="23" v:groupContext="shape" transform="translate(-38.747,-29.1752) rotate(-46.8858)">
			<title>工作表.23</title>
			<path d="M0 198.09 L67.1 198.09" class="st10"/>
		</g>
		<g id="shape24-37" v:mID="24" v:groupContext="shape" transform="translate(250.459,-29.1752) rotate(46.8858)">
			<title>工作表.24</title>
			<path d="M0 198.09 L67.1 198.09" class="st10"/>
		</g>
		<g id="shape25-42" v:mID="25" v:groupContext="shape" transform="translate(298.86,-169.757)">
			<title>矩形.25</title>
			<desc>UDP</desc>
			<v:userDefs>
				<v:ud v:nameU="visVersion" v:val="VT0(15):26"/>
			</v:userDefs>
			<v:textBlock v:margins="rect(4,4,4,4)" v:tabSpace="42.5197"/>
			<v:textRect cx="51.4134" cy="184.624" width="102.83" height="26.9291"/>
			<g id="shadow25-43" v:groupContext="shadow" v:shadowOffsetX="0.345598" v:shadowOffsetY="-1.97279" v:shadowType="1"
					transform="matrix(1,0,0,1,0.345598,1.97279)" class="st1">
				<rect x="0" y="171.159" width="102.827" height="26.9291" class="st2"/>
				<text x="41.41" y="187.62" class="st7" v:langID="2052"><v:paragraph v:horizAlign="1"/><v:tabList/>UDP</text>			</g>
			<rect x="0" y="171.159" width="102.827" height="26.9291" class="st5"/>
			<text x="41.41" y="187.62" class="st9" v:langID="2052"><v:paragraph v:horizAlign="1"/><v:tabList/>UDP</text>		</g>
		<g id="shape26-50" v:mID="26" v:groupContext="shape" transform="translate(298.86,-135.107)">
			<title>矩形.26</title>
			<desc>ICMP</desc>
			<v:userDefs>
				<v:ud v:nameU="visVersion" v:val="VT0(15):26"/>
			</v:userDefs>
			<v:textBlock v:margins="rect(4,4,4,4)" v:tabSpace="42.5197"/>
			<v:textRect cx="51.4134" cy="184.624" width="102.83" height="26.9291"/>
			<g id="shadow26-51" v:groupContext="shadow" v:shadowOffsetX="0.345598" v:shadowOffsetY="-1.97279" v:shadowType="1"
					transform="matrix(1,0,0,1,0.345598,1.97279)" class="st1">
				<rect x="0" y="171.159" width="102.827" height="26.9291" class="st2"/>
				<text x="39.19" y="187.62" class="st7" v:langID="2052"><v:paragraph v:horizAlign="1"/><v:tabList/>ICMP</text>			</g>
			<rect x="0" y="171.159" width="102.827" height="26.9291" class="st5"/>
			<text x="39.19" y="187.62" class="st9" v:langID="2052"><v:paragraph v:horizAlign="1"/><v:tabList/>ICMP</text>		</g>
		<g id="shape27-58" v:mID="27" v:groupContext="shape" transform="translate(298.86,-100.458)">
			<title>矩形.27</title>
			<desc>TCP</desc>
			<v:userDefs>
				<v:ud v:nameU="visVersion" v:val="VT0(15):26"/>
			</v:userDefs>
			<v:textBlock v:margins="rect(4,4,4,4)" v:tabSpace="42.5197"/>
			<v:textRect cx="51.4134" cy="184.624" width="102.83" height="26.9291"/>
			<g id="shadow27-59" v:groupContext="shadow" v:shadowOffsetX="0.345598" v:shadowOffsetY="-1.97279" v:shadowType="1"
					transform="matrix(1,0,0,1,0.345598,1.97279)" class="st1">
				<rect x="0" y="171.159" width="102.827" height="26.9291" class="st2"/>
				<text x="42.24" y="187.62" class="st7" v:langID="2052"><v:paragraph v:horizAlign="1"/><v:tabList/>TCP</text>			</g>
			<rect x="0" y="171.159" width="102.827" height="26.9291" class="st5"/>
			<text x="42.24" y="187.62" class="st9" v:langID="2052"><v:paragraph v:horizAlign="1"/><v:tabList/>TCP</text>		</g>
		<g id="shape28-66" v:mID="28" v:groupContext="shape" transform="translate(126.551,-95.2492) rotate(-43.0454)">
			<title>工作表.28</title>
			<path d="M0 198.09 L40.2 198.09" class="st10"/>
		</g>
		<g id="shape29-71" v:mID="29" v:groupContext="shape" transform="translate(261.762,-148.572)">
			<title>工作表.29</title>
			<path d="M0 198.09 L24.09 198.09" class="st10"/>
		</g>
		<g id="shape30-76" v:mID="30" v:groupContext="shape" transform="translate(396.972,-95.2492) rotate(43.0454)">
			<title>工作表.30</title>
			<path d="M0 198.09 L40.2 198.09" class="st10"/>
		</g>
	</g>
</svg>
