<?xml version="1.0" encoding="UTF-8" standalone="no"?>
<!DOCTYPE svg PUBLIC "-//W3C//DTD SVG 1.1//EN" "http://www.w3.org/Graphics/SVG/1.1/DTD/svg11.dtd">
<!-- 由 Microsoft Visio, SVG Export 生成 4.svg 页-1 -->
<svg xmlns="http://www.w3.org/2000/svg" xmlns:xlink="http://www.w3.org/1999/xlink" xmlns:ev="http://www.w3.org/2001/xml-events"
		xmlns:v="http://schemas.microsoft.com/visio/2003/SVGExtensions/" width="3.64747in" height="1.08842in"
		viewBox="0 0 262.618 78.3661" xml:space="preserve" color-interpolation-filters="sRGB" class="st8">
	<v:documentProperties v:langID="2052" v:metric="true" v:viewMarkup="false"/>

	<style type="text/css">
	<![CDATA[
		.st1 {visibility:visible}
		.st2 {fill:none;filter:url(#filter_2);stroke:#5b9bd5;stroke-opacity:0.22}
		.st3 {fill:#5b9bd5;filter:url(#filter_2);font-family:Times New Roman;font-size:1.16666em;opacity:0.219608}
		.st4 {fill:none;stroke:#000000;stroke-width:1.5}
		.st5 {fill:#000000;font-family:Times New Roman;font-size:1.16666em}
		.st6 {fill:#5b9bd5;fill-opacity:0.22;filter:url(#filter_2);stroke:#5b9bd5;stroke-opacity:0.22}
		.st7 {fill:#ffffff;stroke:#000000;stroke-width:1.5}
		.st8 {fill:none;fill-rule:evenodd;font-size:12px;overflow:visible;stroke-linecap:square;stroke-miterlimit:3}
	]]>
	</style>

	<defs id="Filters">
		<filter id="filter_2">
			<feGaussianBlur stdDeviation="2"/>
		</filter>
	</defs>
	<g v:mID="0" v:index="1" v:groupContext="foregroundPage">
		<title>页-1</title>
		<v:pageProperties v:drawingScale="0.0393701" v:pageScale="0.0393701" v:drawingUnits="24" v:shadowOffsetX="8.50394"
				v:shadowOffsetY="-8.50394"/>
		<g id="shape1-1" v:mID="1" v:groupContext="shape" transform="translate(3.4044,-5.7228)">
			<title>矩形</title>
			<desc>Testbench</desc>
			<v:userDefs>
				<v:ud v:nameU="visVersion" v:val="VT0(15):26"/>
			</v:userDefs>
			<v:textBlock v:margins="rect(4,4,4,4)" v:tabSpace="42.5197"/>
			<v:textRect cx="46.063" cy="42.9331" width="92.13" height="70.8661"/>
			<g id="shadow1-2" v:groupContext="shadow" v:shadowOffsetX="0.345598" v:shadowOffsetY="-1.97279" v:shadowType="1"
					transform="matrix(1,0,0,1,0.345598,1.97279)" class="st1">
				<rect x="0" y="7.5" width="92.126" height="70.8661" class="st2"/>
				<text x="17.3" y="47.13" class="st3" v:langID="2052"><v:paragraph v:horizAlign="1"/><v:tabList/>Testbench</text>			</g>
			<rect x="0" y="7.5" width="92.126" height="70.8661" class="st4"/>
			<text x="17.3" y="47.13" class="st5" v:langID="2052"><v:paragraph v:horizAlign="1"/><v:tabList/>Testbench</text>		</g>
		<g id="shape2-9" v:mID="2" v:groupContext="shape" transform="translate(166.397,-5.7228)">
			<title>矩形.2</title>
			<desc>Arbiter</desc>
			<v:userDefs>
				<v:ud v:nameU="visVersion" v:val="VT0(15):26"/>
			</v:userDefs>
			<v:textBlock v:margins="rect(4,4,4,4)" v:tabSpace="42.5197"/>
			<v:textRect cx="46.063" cy="42.9331" width="92.13" height="70.8661"/>
			<g id="shadow2-10" v:groupContext="shadow" v:shadowOffsetX="0.345598" v:shadowOffsetY="-1.97279" v:shadowType="1"
					transform="matrix(1,0,0,1,0.345598,1.97279)" class="st1">
				<rect x="0" y="7.5" width="92.126" height="70.8661" class="st2"/>
				<text x="25.85" y="47.13" class="st3" v:langID="2052"><v:paragraph v:horizAlign="1"/><v:tabList/>Arbiter</text>			</g>
			<rect x="0" y="7.5" width="92.126" height="70.8661" class="st4"/>
			<text x="25.85" y="47.13" class="st5" v:langID="2052"><v:paragraph v:horizAlign="1"/><v:tabList/>Arbiter</text>		</g>
		<g id="shape3-17" v:mID="3" v:groupContext="shape" transform="translate(84.9005,-29.8173)">
			<title>矩形.3</title>
			<desc>Interface</desc>
			<v:userDefs>
				<v:ud v:nameU="visVersion" v:val="VT0(15):26"/>
			</v:userDefs>
			<v:textBlock v:margins="rect(4,4,4,4)" v:tabSpace="42.5197"/>
			<v:textRect cx="46.063" cy="65.6102" width="92.13" height="25.5118"/>
			<g id="shadow3-18" v:groupContext="shadow" v:shadowOffsetX="0.345598" v:shadowOffsetY="-1.97279" v:shadowType="1"
					transform="matrix(1,0,0,1,0.345598,1.97279)" class="st1">
				<rect x="0" y="52.8543" width="92.126" height="25.5118" class="st6"/>
			</g>
			<rect x="0" y="52.8543" width="92.126" height="25.5118" class="st7"/>
			<text x="21.2" y="69.81" class="st5" v:langID="2052"><v:paragraph v:horizAlign="1"/><v:tabList/>Interface</text>		</g>
	</g>
</svg>
