<?xml version="1.0" encoding="UTF-8" standalone="no"?>
<!DOCTYPE svg PUBLIC "-//W3C//DTD SVG 1.1//EN" "http://www.w3.org/Graphics/SVG/1.1/DTD/svg11.dtd">
<!-- 由 Microsoft Visio, SVG Export 生成 9.svg 页-1 -->
<svg xmlns="http://www.w3.org/2000/svg" xmlns:xlink="http://www.w3.org/1999/xlink" xmlns:ev="http://www.w3.org/2001/xml-events"
		xmlns:v="http://schemas.microsoft.com/visio/2003/SVGExtensions/" width="2.59715in" height="1.12531in"
		viewBox="0 0 186.995 81.0223" xml:space="preserve" color-interpolation-filters="sRGB" class="st10">
	<v:documentProperties v:langID="2052" v:metric="true" v:viewMarkup="false"/>

	<style type="text/css">
	<![CDATA[
		.st1 {visibility:visible}
		.st2 {fill:none;filter:url(#filter_2);stroke:#5b9bd5;stroke-opacity:0.22}
		.st3 {fill:#5b9bd5;filter:url(#filter_2);font-family:Times New Roman;font-size:0.833336em;opacity:0.219608}
		.st4 {fill:none;stroke:#000000;stroke-width:0.25}
		.st5 {fill:#000000;font-family:Times New Roman;font-size:0.833336em}
		.st6 {fill:#5b9bd5;fill-opacity:0.22;filter:url(#filter_2);stroke:#5b9bd5;stroke-opacity:0.22}
		.st7 {fill:url(#ptrn2-15);shape-rendering:crispEdges;stroke:#000000;stroke-width:0.25}
		.st8 {fill:none;stroke:none;stroke-width:0.25}
		.st9 {fill:#a5a5a5;font-family:Times New Roman;font-size:0.75em}
		.st10 {fill:none;fill-rule:evenodd;font-size:12px;overflow:visible;stroke-linecap:square;stroke-miterlimit:3}
	]]>
	</style>

	<defs id="Patterns_And_Gradients">
		<pattern id="ptrn2-15" v:fillPattern="2" v:foreground="#000000" v:background="#ffffff" patternUnits="userSpaceOnUse"
				width="6" height="6" viewBox="0 0 64 64">
			<image x="0" y="0" width="64" height="64" image-rendering="optimizeSpeed"
					xlink:href="data:image/png;base64,iVBORw0KGgoAAAANSUhEUgAAAAgAAAAICAYAAADED76LAAAAAXNSR0IArs4c6QAAAARnQU1BAACxjwv8YQUAAAAJcEhZcwAADsMAAA7DAcdvqGQAAAA+SURBVChTfY/BDQAgCMRYgv1HudHOHFEjCvZDoP1gAFihu7vT5p5YUvMJTilScEuxg0qKCDop4otOCvtJABzy790RAfFL1QAAAABJRU5ErkJggg=="/>
		</pattern>
	</defs>
	<defs id="Filters">
		<filter id="filter_2">
			<feGaussianBlur stdDeviation="2"/>
		</filter>
	</defs>
	<g v:mID="0" v:index="1" v:groupContext="foregroundPage">
		<title>页-1</title>
		<v:pageProperties v:drawingScale="0.0393701" v:pageScale="0.0393701" v:drawingUnits="24" v:shadowOffsetX="8.50394"
				v:shadowOffsetY="-8.50394"/>
		<g id="shape28-1" v:mID="28" v:groupContext="shape" transform="translate(116.47,-62.6122)">
			<title>矩形.28</title>
			<desc>table[3]</desc>
			<v:userDefs>
				<v:ud v:nameU="visVersion" v:val="VT0(15):26"/>
			</v:userDefs>
			<v:textBlock v:margins="rect(4,4,4,4)" v:tabSpace="42.5197"/>
			<v:textRect cx="29.3535" cy="72.5183" width="58.71" height="17.0079"/>
			<g id="shadow28-2" v:groupContext="shadow" v:shadowOffsetX="0.345598" v:shadowOffsetY="-1.97279" v:shadowType="1"
					transform="matrix(1,0,0,1,0.345598,1.97279)" class="st1">
				<rect x="0" y="64.0144" width="58.707" height="17.0079" class="st2"/>
				<text x="13.81" y="75.52" class="st3" v:langID="2052"><v:paragraph v:horizAlign="1"/><v:tabList/>table[3]</text>			</g>
			<rect x="0" y="64.0144" width="58.707" height="17.0079" class="st4"/>
			<text x="13.81" y="75.52" class="st5" v:langID="2052"><v:paragraph v:horizAlign="1"/><v:tabList/>table[3]</text>		</g>
		<g id="shape29-9" v:mID="29" v:groupContext="shape" transform="translate(11.5886,-62.6122)">
			<title>矩形.29</title>
			<v:userDefs>
				<v:ud v:nameU="visVersion" v:val="VT0(15):26"/>
			</v:userDefs>
			<g id="shadow29-10" v:groupContext="shadow" v:shadowOffsetX="0.345598" v:shadowOffsetY="-1.97279" v:shadowType="1"
					transform="matrix(1,0,0,1,0.345598,1.97279)" class="st1">
				<rect x="0" y="64.0144" width="104.882" height="17.0079" class="st6"/>
			</g>
			<rect x="0" y="64.0144" width="104.882" height="17.0079" class="st7"/>
		</g>
		<g id="shape30-16" v:mID="30" v:groupContext="shape" transform="translate(116.47,-45.6043)">
			<title>矩形.30</title>
			<desc>table[2]</desc>
			<v:userDefs>
				<v:ud v:nameU="visVersion" v:val="VT0(15):26"/>
			</v:userDefs>
			<v:textBlock v:margins="rect(4,4,4,4)" v:tabSpace="42.5197"/>
			<v:textRect cx="29.3535" cy="72.5183" width="58.71" height="17.0079"/>
			<g id="shadow30-17" v:groupContext="shadow" v:shadowOffsetX="0.345598" v:shadowOffsetY="-1.97279" v:shadowType="1"
					transform="matrix(1,0,0,1,0.345598,1.97279)" class="st1">
				<rect x="0" y="64.0144" width="58.707" height="17.0079" class="st2"/>
				<text x="13.81" y="75.52" class="st3" v:langID="2052"><v:paragraph v:horizAlign="1"/><v:tabList/>table[2]</text>			</g>
			<rect x="0" y="64.0144" width="58.707" height="17.0079" class="st4"/>
			<text x="13.81" y="75.52" class="st5" v:langID="2052"><v:paragraph v:horizAlign="1"/><v:tabList/>table[2]</text>		</g>
		<g id="shape31-24" v:mID="31" v:groupContext="shape" transform="translate(11.5886,-45.6043)">
			<title>矩形.31</title>
			<v:userDefs>
				<v:ud v:nameU="visVersion" v:val="VT0(15):26"/>
			</v:userDefs>
			<g id="shadow31-25" v:groupContext="shadow" v:shadowOffsetX="0.345598" v:shadowOffsetY="-1.97279" v:shadowType="1"
					transform="matrix(1,0,0,1,0.345598,1.97279)" class="st1">
				<rect x="0" y="64.0144" width="104.882" height="17.0079" class="st6"/>
			</g>
			<rect x="0" y="64.0144" width="104.882" height="17.0079" class="st7"/>
		</g>
		<g id="shape32-30" v:mID="32" v:groupContext="shape" transform="translate(116.493,-28.5965)">
			<title>矩形.32</title>
			<desc>table[1]</desc>
			<v:userDefs>
				<v:ud v:nameU="visVersion" v:val="VT0(15):26"/>
			</v:userDefs>
			<v:textBlock v:margins="rect(4,4,4,4)" v:tabSpace="42.5197"/>
			<v:textRect cx="29.3535" cy="72.5183" width="58.71" height="17.0079"/>
			<g id="shadow32-31" v:groupContext="shadow" v:shadowOffsetX="0.345598" v:shadowOffsetY="-1.97279" v:shadowType="1"
					transform="matrix(1,0,0,1,0.345598,1.97279)" class="st1">
				<rect x="0" y="64.0144" width="58.707" height="17.0079" class="st2"/>
				<text x="13.81" y="75.52" class="st3" v:langID="2052"><v:paragraph v:horizAlign="1"/><v:tabList/>table[1]</text>			</g>
			<rect x="0" y="64.0144" width="58.707" height="17.0079" class="st4"/>
			<text x="13.81" y="75.52" class="st5" v:langID="2052"><v:paragraph v:horizAlign="1"/><v:tabList/>table[1]</text>		</g>
		<g id="shape33-38" v:mID="33" v:groupContext="shape" transform="translate(11.6108,-28.5965)">
			<title>矩形.33</title>
			<v:userDefs>
				<v:ud v:nameU="visVersion" v:val="VT0(15):26"/>
			</v:userDefs>
			<g id="shadow33-39" v:groupContext="shadow" v:shadowOffsetX="0.345598" v:shadowOffsetY="-1.97279" v:shadowType="1"
					transform="matrix(1,0,0,1,0.345598,1.97279)" class="st1">
				<rect x="0" y="64.0144" width="104.882" height="17.0079" class="st6"/>
			</g>
			<rect x="0" y="64.0144" width="104.882" height="17.0079" class="st7"/>
		</g>
		<g id="shape34-44" v:mID="34" v:groupContext="shape" transform="translate(116.493,-11.5886)">
			<title>矩形.34</title>
			<desc>table[0]</desc>
			<v:userDefs>
				<v:ud v:nameU="visVersion" v:val="VT0(15):26"/>
			</v:userDefs>
			<v:textBlock v:margins="rect(4,4,4,4)" v:tabSpace="42.5197"/>
			<v:textRect cx="29.3535" cy="72.5183" width="58.71" height="17.0079"/>
			<g id="shadow34-45" v:groupContext="shadow" v:shadowOffsetX="0.345598" v:shadowOffsetY="-1.97279" v:shadowType="1"
					transform="matrix(1,0,0,1,0.345598,1.97279)" class="st1">
				<rect x="0" y="64.0144" width="58.707" height="17.0079" class="st2"/>
				<text x="13.81" y="75.52" class="st3" v:langID="2052"><v:paragraph v:horizAlign="1"/><v:tabList/>table[0]</text>			</g>
			<rect x="0" y="64.0144" width="58.707" height="17.0079" class="st4"/>
			<text x="13.81" y="75.52" class="st5" v:langID="2052"><v:paragraph v:horizAlign="1"/><v:tabList/>table[0]</text>		</g>
		<g id="shape35-52" v:mID="35" v:groupContext="shape" transform="translate(11.6108,-11.5886)">
			<title>矩形.35</title>
			<v:userDefs>
				<v:ud v:nameU="visVersion" v:val="VT0(15):26"/>
			</v:userDefs>
			<g id="shadow35-53" v:groupContext="shadow" v:shadowOffsetX="0.345598" v:shadowOffsetY="-1.97279" v:shadowType="1"
					transform="matrix(1,0,0,1,0.345598,1.97279)" class="st1">
				<rect x="0" y="64.0144" width="104.882" height="17.0079" class="st6"/>
			</g>
			<rect x="0" y="64.0144" width="104.882" height="17.0079" class="st7"/>
		</g>
		<g id="shape36-58" v:mID="36" v:groupContext="shape" transform="translate(162.983,-0.25)">
			<title>工作表.36</title>
			<desc>0</desc>
			<v:textBlock v:margins="rect(4,4,4,4)" v:tabSpace="42.5197"/>
			<v:textRect cx="11.8808" cy="75.353" width="23.77" height="11.3386"/>
			<rect x="0" y="69.6837" width="23.7615" height="11.3386" class="st8"/>
			<text x="9.63" y="78.05" class="st9" v:langID="2052"><v:paragraph v:horizAlign="1"/><v:tabList/>0</text>		</g>
		<g id="shape37-61" v:mID="37" v:groupContext="shape" transform="translate(104.612,-0.25)">
			<title>工作表.37</title>
			<desc>7</desc>
			<v:textBlock v:margins="rect(4,4,4,4)" v:tabSpace="42.5197"/>
			<v:textRect cx="11.8808" cy="75.353" width="23.77" height="11.3386"/>
			<rect x="0" y="69.6837" width="23.7615" height="11.3386" class="st8"/>
			<text x="9.63" y="78.05" class="st9" v:langID="2052"><v:paragraph v:horizAlign="1"/><v:tabList/>7</text>		</g>
		<g id="shape38-64" v:mID="38" v:groupContext="shape" transform="translate(0.25,-0.25)">
			<title>工作表.38</title>
			<desc>31</desc>
			<v:textBlock v:margins="rect(4,4,4,4)" v:tabSpace="42.5197"/>
			<v:textRect cx="11.8808" cy="75.353" width="23.77" height="11.3386"/>
			<rect x="0" y="69.6837" width="23.7615" height="11.3386" class="st8"/>
			<text x="7.38" y="78.05" class="st9" v:langID="2052"><v:paragraph v:horizAlign="1"/><v:tabList/>31</text>		</g>
	</g>
</svg>
